Id,Lat,Lon
18,42.6401581184,4.53055686959
65,34.1539429209,-91.2021234793
90,49.4815272561,7.43476500658
92,37.4385072352,-112.486644763
107,38.439243966,-83.4961050064
109,35.165529407,-104.164521557
174,40.2631856134,-75.5330147338
302,38.9090996324,-79.163395802
371,44.6469435577,-47.3197368607
388,35.08889286,-80.206952335
406,48.3210299395,-2.68500970599
408,36.5003798626,-111.258512169
442,23.619168731,-94.8771245718
493,36.1917830478,-111.282390934
533,39.095638443,-98.3617652793
622,40.6435082421,-95.5439599331
626,46.7423173809,-97.2460465195
691,40.7894215336,-66.1594209954
698,48.5066546373,-2.22433951557
788,0.143199133635,101.524301608
950,38.3854499143,-90.0553023103
979,33.8645656543,-108.91704882
1027,40.4746751571,-75.9444306601
1110,32.3116548059,106.136900205
1150,39.7191374931,-12.2118820464
1225,42.6877393901,-66.3963305495
1227,43.5195560624,-72.6121836309
1263,39.7349723997,-101.871752412
1323,46.0436979587,-111.071392991
1402,37.7612230015,-33.0781316308
1407,38.0872546529,-108.587362716
1444,38.4657359313,-97.9065445185
1504,35.7071408042,27.154868733
1740,44.8310210462,-109.247099185
1868,44.0168185265,-93.7543017022
1903,40.1981838537,-74.8213305139
1931,39.5454597676,-97.7001285445
1967,44.1099620317,-112.911125583
2006,25.5519228704,-140.464823156
2040,62.656148257,17.3004224317
2056,42.8077317531,-93.950027816
2096,37.986288429,-111.703320322
2227,37.2669659003,-72.357428194
2352,-18.4944984777,125.175786686
2427,39.9421447629,-69.0234998557
2569,40.2329204586,-69.6721649625
2698,36.0990790847,-78.9312217964
2707,-15.2322924543,101.984200016
2715,44.6736932991,-42.0849552772
2761,39.5747357121,-73.2137874795
2799,28.6108244896,-76.2962599764
3018,39.8724905014,-99.3490236078
3036,48.7214248329,-2.0279770518
3045,48.3425426965,-2.76074939057
3048,32.3450988652,-91.0050332001
3244,40.020425357,-98.4889396029
3326,49.8827971684,-7.96958245065
3388,48.3897585151,-1.38021674297
3390,37.474980544,-97.6160820136
3409,39.0944545507,-96.8562578116
3438,34.7654610707,-109.479569647
3461,41.7519096433,-65.4751332953
3498,-18.7584914962,125.629356191
3508,33.9947364554,-109.101374538
3577,8.0372319015,-7.00260375245
3673,35.104513671,-110.208296441
3810,43.4654404193,-68.3875674007
3885,32.7046974586,-93.0154829088
3971,35.0282043999,124.617824113
4050,35.260233543,123.718492504
4065,47.9482519012,4.97802891481
4273,43.9132729937,5.65565442116
4280,48.2755957087,3.6685804077
4309,39.3395814728,-81.0779437182
4312,44.8897054032,-110.51576057
4571,42.670340351,-74.4976824208
4593,40.250066314,-75.3069327091
4615,54.5878284371,15.3446732972
4693,35.0921415899,-104.014802197
4713,47.3744850479,3.28561544758
4722,48.6041050715,-1.7193621094
4837,34.3052413869,-108.863293736
4990,37.0183697904,128.929346601
5079,33.8010907585,-87.4300345754
5150,41.5425413202,-66.442903885
5242,34.9296566891,-109.7769005
5325,37.8128286255,-111.468829269
5334,34.895059219,123.41629529
5339,19.0867097065,104.037079132
5460,55.3430290739,8.61926761617
5467,41.1944017384,-88.5879802756
5490,29.3711724902,-80.2042987223
5532,39.0504410182,-72.3167161896
5554,40.1668719129,-71.0682559398
5567,43.8481745553,-55.7966139303
5604,49.3439789257,-2.51459166876
5613,48.6570646349,-105.257417778
5617,44.6049131032,-73.057168644
5662,37.9088183603,-112.457301268
5667,38.406174898,-106.737124065
5715,40.294417524,-71.6393872029
5778,55.1118733468,22.6168375821
5976,35.2545450536,123.338468456
6068,38.8945370612,-95.9088344454
6098,39.2593610572,-71.5599673779
6168,39.8583599204,-68.9913314347
6260,34.0634988474,-103.675275694
6295,41.1074834773,-68.0260641179
6348,32.4862056253,-90.4373755806
6384,43.2135612216,-73.319594607
6406,42.0182911132,-72.4848914429
6417,37.8853124199,-109.549713492
6472,36.4854007102,-81.7758388191
6483,35.1092366915,-83.5173017969
6641,39.5018063153,-92.7467829384
6692,39.4021172975,-104.796835422
6738,37.4314484264,-88.6066500419
6811,45.5671437858,-112.082258858
6860,39.1375691951,-73.2990143492
6865,39.7110933323,-96.900191591
6898,54.6586843475,15.9658098789
6903,41.5730923324,-82.3521654916
6971,38.4173854127,-86.0600682355
6995,39.7166954231,-98.27799534
6999,35.2450191335,-108.906970147
7302,34.8131325487,-88.2866859022
7304,33.1314917719,-96.9062620345
7317,-8.32910727805,-50.7986690727
7390,49.8919978022,-3.33812011865
7413,34.5370110924,124.182186632
7417,42.2971646302,-86.0981051384
7460,31.5030800897,-89.3956460062
7461,35.5653322431,-93.9662439919
7466,31.4295542359,-78.3357502586
7526,36.1099701824,-77.3474348998
7554,49.7045283208,-9.82238302538
7788,42.5689411809,-89.8098510539
7883,7.74596232268,-6.45945246062
8071,40.8799467751,-77.2908697612
8079,36.4169635625,-96.0214185663
8124,46.0751880837,12.4038035811
8188,50.1557665025,-15.9903761202
8194,44.8561485075,-112.587346195
8252,45.467187111,-111.625438277
8295,42.7420032427,-75.9210490874
8296,1.55641627856,93.7312612246
8415,54.6050578474,15.4479115491
8533,34.8458706932,-106.033856192
8641,33.8718056344,123.429130629
8650,48.3023490828,-1.11953446814
8652,49.0180340593,2.78148111914
8733,37.9676793838,-113.479564161
8787,7.86072913286,-6.64255698
8790,30.3143857648,-78.273224918
8916,35.3698067093,123.206977957
8941,37.8496889523,-113.22745895
8966,28.954095749,-77.3971290585
9024,34.7624283022,-109.697592529
9050,-22.1119271169,120.615177729
9071,38.6850736322,102.907724669
9197,39.4857678208,-71.8738864992
9279,41.1635794603,125.610261299
9283,35.0893267565,123.674973355
9445,41.7135595571,-70.5138005756
9801,37.928392413,-107.731904802
9865,49.1295563299,2.7199871294
9868,37.605633514,-112.706793158
9908,54.212419291,15.54388094
9912,50.6226927383,-1.86009268214
9945,56.7980139062,4.63531462152
9981,39.6460126745,-72.3100835711
10042,37.979767259,-113.650388486
10044,32.1122175388,-92.1387630721
10114,42.9314887426,-95.1499990306
10165,39.471671783,-109.189759571
10226,40.5029598001,-76.0002736861
10264,37.0730117363,-105.236205952
10312,41.7705806846,-67.4772418708
10383,0.41639194867,-50.6655614769
10436,33.7162271257,7.90855304302
10693,35.2917122599,-104.017355687
10770,54.6134620468,15.9460381586
10832,50.3920967951,-11.3871440259
10842,38.845629732,-72.7193251329
10876,36.0013057386,-76.5365235388
10905,40.8275812664,-85.9940095411
11058,42.9686174589,-75.0332217264
11084,37.4874973589,128.41883731
11100,42.1514315473,-99.2813967488
11110,35.0107047236,-105.240129259
11114,37.8095492269,-90.5920221387
11259,38.8921218001,-6.0291067884
11276,8.34699808977,-7.58842970181
11278,37.3553699697,-101.463241019
11316,48.3560525462,-1.43114215976
11342,41.8404311659,-84.8911868385
11532,35.8790616857,102.350077027
11570,39.4704678004,-74.3020585527
11584,35.6877166104,123.268478136
11628,39.3244916668,-89.7425991328
11657,48.8641495405,2.53731728028
11698,40.2030142469,-72.222719034
11706,34.1674991383,-90.5933371378
11784,36.1946189833,-76.8883673243
11806,40.5152987399,-104.880694552
11808,35.5370540653,-109.607799861
11816,37.7673075204,-73.5167346354
11830,32.6906738673,-80.6638782709
11865,40.8448321257,-80.5743213212
11931,30.3713036869,-76.5753795534
12045,-17.4125781305,99.5170302479
12126,35.4013054764,123.120211623
12237,38.0457278984,-113.54127954
12312,33.6275301267,-108.484824497
12413,38.9781550657,-73.6508846382
12467,39.9368175184,-98.345559139
12492,43.900423831,5.87489058554
12676,38.0469410392,-113.582141659
12694,40.4648926249,-68.9801764002
12966,41.0584802329,-84.5514627205
12993,39.6095452409,-98.119491714
13036,36.9462558958,-95.2409172506
13154,39.4886353947,-88.9530547247
13161,37.610724396,-102.379860457
13166,39.9523116625,-95.0140028384
13223,40.7216013518,-1.06430450672
13243,42.7155291408,-85.9113440103
13252,41.634243019,-67.3555740098
13271,39.3819683938,-69.7793019587
13293,32.4138407887,-87.2593702144
13369,39.6483241282,-97.917167986
13397,31.9235242436,-90.2709653773
13432,39.1505201197,-65.8643548577
13469,34.7492678766,123.844618727
13474,31.7828364912,-85.2764504844
13494,42.920769946,22.6984736449
13556,56.0623714785,20.9920875197
13643,35.3696978655,-109.946262112
13711,35.1713015659,121.947432177
13805,32.7494322586,-93.1427993318
13853,43.5695876652,5.60726955543
13907,40.3833796925,-75.7268149506
13933,34.7858012363,-104.915437134
13974,37.4258156492,-83.8002772196
13977,41.0338995648,-46.9386001442
13984,35.3305956231,-80.0002593679
14017,41.5012575162,-82.1619510771
14050,-14.2212256356,56.6271626575
14097,8.37633625305,-7.73806822713
14099,31.0992728216,-78.3323318431
14174,53.3255486335,14.3196204082
14220,43.0972737933,6.63041572886
14266,32.1084645859,-90.7128369844
14278,34.8942254265,123.669744049
14346,41.945024083,-84.3359060316
14391,47.5534258763,6.38976436238
14394,32.1839677702,-77.518153211
14421,20.4577479528,68.8631336511
14432,-14.3138461306,128.634496937
14443,40.4765516206,-82.8293431045
14564,42.7303849057,-74.6012674349
14618,35.2291507798,-80.4932757974
14624,39.9946350746,-101.326504768
14691,45.6396847112,5.92989485867
14703,36.112772941,97.7523070235
14756,7.96387693678,-6.87551938236
14781,34.9851994406,-109.902054158
14803,40.3549328831,-75.6968900794
14821,27.2689561658,51.0852137081
14840,42.5151032768,10.907070964
14953,8.29438843454,-7.47233518922
15086,35.7817197779,-80.6086489291
15100,35.2403394304,123.366631359
15109,45.1269034803,-52.7848343112
15193,41.6329723766,-69.0632758214
15340,31.051971904,23.3304327164
15476,34.1428260665,-79.4704767272
15649,29.935462389,65.3538442854
15657,34.7018527155,121.977053623
15824,41.3038470491,-67.1287530108
15880,39.7705307441,-101.356807953
15892,52.2351261072,-5.41214101539
15921,40.6448939526,-8.18598450832
15930,38.6521171422,12.0650494957
15950,55.6592106438,14.3652064514
15967,50.2989199603,-20.9424060084
16016,46.060221455,-13.869685593
16030,44.2546870213,-113.358240521
16065,43.5957044989,-112.366807232
16204,41.6280100008,-73.2799919232
16324,45.4263167997,-109.243418028
16340,40.104824043,40.8110659237
16368,31.0968475533,-78.3321078233
16391,54.6996774141,15.2189616522
16476,35.3184767517,123.243962099
16568,40.7046013653,-1.06197575075
16703,39.3594220514,-80.2178329795
16712,35.0346625253,123.69926902
16734,34.1627623687,-103.673961568
16886,39.9773713638,-75.0907922667
16939,49.3108179131,-2.39277378278
16942,35.2934697672,123.313952967
16962,49.2816274008,2.37047028685
17053,29.5353012346,-77.3062902673
17062,41.0688560669,125.741472037
17095,37.808937596,-112.692065251
17115,45.4984699039,-111.942217099
17149,54.3524455369,15.7596967975
17248,-14.0164248034,-68.834371526
17253,43.0763477604,-72.7715538966
17378,40.5771861714,-80.9932718494
17396,54.6319968197,16.0104597335
17445,42.8910604159,-76.5676349979
17591,35.3642491672,122.943521299
17596,27.895727032,-105.951974223
17701,31.9831866087,-90.9531920346
17931,50.0930143898,7.00724048085
18007,48.8587180144,2.99883465975
18036,35.2943402956,-110.54209413
18048,35.4975074657,-106.946812342
18220,39.4957517555,-70.2850226095
18262,35.2507468339,123.44957948
18312,32.7584501755,-94.3879092733
18454,34.3510149391,123.713573425
18465,39.8692986346,-81.6425575188
18501,40.8774188865,-1.23898944238
18666,46.6208380842,1.58030141197
18777,35.1598169154,-80.600632196
18780,37.2520058096,-102.949711171
18794,40.0665193556,-98.6399701917
18812,39.6180356371,-82.6873569969
18868,17.6547924803,-56.6759211603
18925,34.9241641751,-80.1107511787
18948,38.0137711481,-113.553679197
18956,39.5340537309,-85.7985504949
18959,35.6726859615,-80.6421372865
18960,39.0784772192,-96.8724153419
18973,37.6479385379,-7.18671535987
18995,35.2728403016,123.333065328
19094,14.8083146694,-65.2645977824
19119,35.2282340856,-110.556334593
19130,31.3921426763,-91.3619304619
19138,41.6764481125,-77.6948170857
19311,38.5290422213,-71.623074207
19333,34.7613260277,-108.795060159
19373,41.341827407,-74.7814943757
19502,-12.4505085162,15.2639930602
19511,35.0382962813,-110.008698803
19696,40.5015321202,-102.343562195
19738,56.1508193101,24.8978410101
19740,8.52066557919,-7.91907939764
19802,38.9020453538,102.545170489
19835,42.3334772088,-24.0171571418
19915,47.7584118836,-2.25125740511
19954,34.5369784965,119.766172707
20039,40.9842216653,-77.9446615412
20056,36.0364543209,-74.095071133
20139,55.3104502251,22.8064940225
20318,27.1220364797,105.815144518
20385,43.8704580536,-87.0254320263
20410,8.07649170898,-7.12945255654
20448,48.5597502283,-1.70559457329
20494,53.6887686684,21.1374440987
20511,46.9266697059,8.0874808686
20599,45.2864470152,36.447555144
20606,39.5640750811,-97.6399433648
20619,37.6290307905,-112.737547576
20734,27.5263882628,105.114028734
20765,47.941471731,-2.47892135568
20949,48.380831765,-1.30150009979
20958,41.0330293254,-87.8157772153
20962,34.5646756137,-92.5801948063
21057,45.3747535068,-110.813746664
21169,48.9047414087,3.06067912151
21267,37.9349043117,-73.2258114894
21339,38.034537534,-82.35816165
21388,45.6290062788,5.07175253719
21394,45.9991154531,0.922053284617
21445,49.1122785934,-42.528686101
21582,-18.742141193,128.329019322
21608,35.1790104213,123.691102148
21621,54.7806408949,15.7934632557
21766,41.7192906109,-72.59511517
21872,40.653638951,-76.2724385098
21911,35.3796113158,-90.158416125
22071,37.8472287866,-97.8613462861
22093,42.2556234028,-89.1763785008
22101,35.2153556485,124.122209421
22163,39.8748590227,-96.5692153768
22208,38.6901573604,-72.373114914
22224,41.39154318,-81.9563380239
22231,31.0822974267,-89.1795232285
22393,49.1890775239,-8.82804267009
22435,39.8688890051,-69.0004656457
22556,39.4163047936,-80.6741822104
22602,43.5036727422,-88.9286242406
22682,41.3734696336,-78.4392384625
22800,34.4272022563,123.815071931
22960,8.40752700687,-7.69570729343
22963,35.761302943,122.44771827
23078,40.2919987149,-71.7746984556
23106,54.7261190744,15.8306217862
23321,-3.57096126906,22.1807702159
23368,44.0290395425,-97.1087857954
23435,32.2682232064,-89.8629435247
23638,42.6801066422,-111.557697307
23639,48.6438790604,-1.88814259896
23683,45.4363934394,5.4358516
23696,31.6755772173,104.02279004
23748,36.3380613951,-108.211843977
23822,35.3134662672,123.21509059
23835,31.5004007495,-76.3982284484
23840,48.6458590731,5.50283421166
23857,25.3933232175,-147.703739656
24033,38.8961469258,133.544869888
24047,-12.616739005,15.5948139852
24059,52.048098188,10.2751298397
24175,40.1704581992,-70.4178304063
24178,53.6041592523,-4.3626525521
24226,-22.061536054,120.489329359
24345,40.0116989814,-102.45508162
24452,35.6808672279,-81.8052253741
24487,8.3509577207,-7.58402124133
24519,18.640367903,85.4741915845
24629,41.9607332572,-79.6521444231
24750,34.6303781612,121.259826562
24781,55.7890077997,8.17169879219
24837,42.8934378269,-24.4734079668
24897,40.2967828711,-88.7722132287
24931,34.1566025084,-103.682780164
24939,41.6954409677,-67.2833224452
24965,-17.6984219012,131.368268958
24981,36.0694777107,-85.5541094392
25005,35.5169255479,123.544222296
25040,43.6147100361,6.03395214376
25136,40.2147705645,-84.5408363333
25160,37.7647673888,-91.6115537816
25194,47.7866046898,-53.1239991622
25231,39.2638356993,-88.7002010409
25262,40.7324952698,-66.2914271311
25356,42.9577254411,-88.4948770013
25358,34.9596410177,-109.853777817
25529,35.9178084001,-73.9536391281
25573,49.1930039374,-3.55410947525
25663,39.7889849077,-98.0437044339
25748,-14.2206415515,128.960167645
25814,42.1539141816,-73.5090910648
25859,38.5987979134,-96.8715659405
25926,39.1501749114,-81.0917647179
25948,6.43873287515,-7.03454818803
26017,41.8626783961,-74.900911759
26152,41.3748556262,-81.8012101624
26161,34.3555724306,-103.99920756
26184,48.1715557739,2.04824815084
26271,40.4019231288,-70.0336757954
26307,8.14894161915,-7.20311073909
26317,39.9166830547,-69.1549983554
26708,38.3194785212,-114.046434382
26741,39.2245265608,-73.5268247647
26748,39.4229389932,-32.7859234809
26811,56.6413613664,6.87295790064
26820,38.3245954356,-114.179785916
26834,32.9121940098,-96.6018369666
26900,29.2169312663,-76.4961761141
26948,34.8983653818,-79.9104004667
26968,28.1461571176,-94.5474599996
27095,16.8705297241,-41.9358235992
27139,34.5512585302,-104.42935846
27215,33.4217019933,-96.3635203277
27255,38.2264908887,21.1872217811
27274,36.0079575318,-79.8451480388
27283,40.1050262426,-69.5043838168
27359,48.9988167431,2.71743989606
27368,41.7484150757,-83.1669980385
27438,42.7458847071,-65.872567559
27449,56.0291056961,14.6731036273
27460,41.7496376032,-67.5000541301
27580,54.3988569446,15.5914669913
27706,47.1834833783,-28.6715753974
27790,35.1865002357,122.106054114
27938,38.9712726953,-73.0111851151
28079,38.5239652105,-78.4682114161
28110,39.1940655774,-70.0385721655
28121,41.1305331077,-86.404851637
28124,34.2392727848,-103.788930278
28287,49.332899824,8.7307891715
28315,41.0783383392,-82.1692653797
28363,-17.5252366564,-75.1054379534
28405,38.7864460677,-72.6653966698
28500,39.890436085,-81.0409685654
28615,42.6628061086,-93.8701422564
28672,39.4340102574,-97.4892209719
28685,27.8032501677,-132.682962588
28705,39.3889671949,-81.6428852762
28885,32.4048606096,-91.0049004654
28887,39.7351318301,-98.2304220974
28902,-21.9355494095,120.227565545
29141,40.2106757075,-97.3832282489
29219,43.357179379,-85.9751428896
29261,31.5164729742,-93.2543082041
29278,36.88921881,-80.1371313059
29364,34.2201799096,119.910356222
29427,38.1354308747,-113.880093993
29517,46.2970494503,6.53865445639
29525,36.4353650112,-84.9065070627
29542,40.3041070858,-69.5756770002
29623,48.6178203778,-1.90827824465
29659,39.6029003022,-97.7802915408
29692,41.3041359881,-69.06480793
29745,39.9651798985,-68.6559989039
29779,40.0890773562,-71.5595381824
29862,38.3679972737,-107.020818721
29870,42.5406895033,-69.8237777268
29993,47.9535783152,2.25955659328
30063,7.95497271757,-6.80221887659
30124,41.7632837682,-82.6234929697
30137,37.8829454653,-63.2740325375
30157,56.670620833,-136.574015352
30173,41.436059773,-82.0296818231
30198,44.91614566,5.77778113376
30264,35.0076463905,-109.964165068
30268,35.0868959411,-80.7330116146
30336,48.4771932717,-18.9407954069
30368,35.384476926,123.179499361
30456,8.37843394103,-7.63978959412
30459,35.1705915178,-108.736001867
30482,33.5985896717,-90.1748022893
30537,39.4777867428,-80.8582655592
30541,35.220281065,122.854554964
30552,39.9682393673,-72.324181995
30618,36.0580554572,-80.4541600631
30853,41.0353450567,127.455311017
30878,28.1236906829,-76.4856740636
30947,35.1996105444,123.49863902
30977,39.1637185663,-98.0382276356
31023,54.9919350116,9.3232882951
31071,37.6560312427,-72.6646513284
31079,20.122827178,-57.6021092216
31110,35.3234320841,123.294923961
31146,28.4616824836,111.15434382
31150,34.7295542594,-109.573708573
31283,-14.009363925,128.721791299
31291,32.4268363516,-92.2940452546
31399,37.0136649498,112.367967518
31497,-18.8009101932,12.7386319856
31582,32.9060647827,-71.4132045997
31653,48.542400864,-1.64587085837
31677,8.04857476976,-7.0244882432
31692,37.5831602936,-110.441773003
31739,39.3520882938,-77.4166600877
31823,32.2994836492,-90.2709525218
31957,40.5545348598,-76.2263312816
31989,39.1550318989,-77.5737032451
32064,37.0700021121,-84.3107186019
32090,47.5374876116,-115.080607116
32102,49.2528182268,10.559381892
32217,43.6539903298,-51.0278029448
32241,7.54887292087,-6.08306663558
32326,33.3482208168,-84.6029127818
32599,54.6778979606,15.8166742099
32609,40.2032067148,-66.3363423208
32646,37.7236709061,-85.2440517593
32711,39.2476219224,-96.8548007668
32714,38.528624221,-87.9102663684
32806,34.3675194856,-91.5563041197
32825,34.4741681541,-98.1156970093
32892,50.5966345776,-0.276524196755
32923,37.9107246097,-94.7966650775
32930,35.4731807157,-110.857226437
33056,37.7097977378,-112.146851339
33065,51.4050184445,-3.04979892549
33119,37.4553721244,-96.5012854871
33294,30.7466747408,-77.284110273
33312,49.2021991647,3.18872486229
33383,40.6754899441,-68.9936963261
33471,43.8045283951,-112.705354695
33481,39.9039151669,-69.1481732929
33574,34.8239172148,-78.1393886061
33597,31.6882316308,-86.4904927249
33635,37.581449894,-83.7152537656
33679,55.3840212461,23.4113380185
33693,35.4327505076,123.072462976
33708,49.5141623274,-5.21845316277
33832,33.5905585227,-89.7555715698
33890,30.2688670107,80.2337745856
33968,42.9141503002,-74.9282387688
33980,34.7044506681,120.234701822
34058,34.8019183033,-83.1146445493
34090,39.3067232542,-69.3597680801
34163,8.52066557919,-7.91907939764
34186,39.6220435411,-71.0375701013
34206,51.6824403431,32.6975514217
34216,-14.3749967872,135.502250606
34335,38.5393449831,-3.31296904603
34470,37.0087135046,-75.0094847922
34620,35.7819062551,103.576999569
34625,42.7407906787,-74.5770674813
34661,54.3807390977,15.6840992206
34795,38.7558032683,-114.172016077
35049,41.1148673266,-77.5475268393
35130,35.1447862464,-110.319161331
35170,48.8375605563,1.76043599061
35230,38.7067024739,-72.3967863962
35308,35.3510756305,-110.627710678
35319,39.0054796677,-91.3087229301
35374,39.9478391338,-98.4242964477
35384,55.5729737353,21.4483305069
35397,39.3895566531,-97.2695005761
35416,42.3163716585,-86.4841761735
35423,39.6609071463,-58.1998585501
35533,38.6872570263,102.92329754
35556,43.1171928948,-111.197106219
35585,37.6617867079,-112.083658654
35651,45.819121193,-112.506738072
35694,32.0491450097,106.026145511
35959,38.1783552552,-93.8434999524
35987,39.2584541322,-81.2280979225
35991,45.9761779608,-107.370416494
35998,38.8200530481,-87.7382076858
36160,31.8042959371,-90.1043672862
36197,36.3444526146,-89.8946107365
36276,38.2875370824,-73.8922350211
36331,39.2308607272,-80.8800095273
36351,30.9660415914,-79.3930157958
36355,34.996372128,-109.954283099
36359,33.3703928444,124.467110564
36390,34.3778026171,117.68602045
36448,41.7755766349,7.60513487143
36468,35.4081079648,-107.645192426
36470,48.9355040619,1.52891902477
36510,39.9997025928,-3.90125468598
36517,42.9995609788,-88.3759420034
36525,30.1562853944,-84.9118751439
36551,41.6143533719,-82.3506855696
36707,49.0180983124,5.02448920193
36722,35.2789160945,-110.418589299
36757,41.7072733397,-77.0608032888
36830,41.6327913703,-71.69171866
36859,34.9349497116,-109.767994736
36868,55.5074746725,8.31428425524
36893,39.8393615447,24.2053425222
36917,39.0394729708,-11.5180605028
36956,42.7398563628,-102.656978039
36990,35.1330953627,-110.216860906
37001,49.058123053,6.73539612111
37052,47.3650890161,8.29672158467
37087,35.6916935445,123.967739868
37108,40.6678288379,-66.3244706145
37116,44.8283756741,6.53511696117
37141,44.3100467747,-113.74331583
37175,39.3223235888,-70.546889432
37247,-24.7993967597,146.443971604
37269,41.1234093404,-78.640251258
37305,-18.9430563066,126.0647348
37312,42.0731752609,-76.0843792609
37401,-19.9544778781,117.847905461
37495,48.4416989673,-1.5548396214
37511,47.2460141596,5.71149594589
37641,34.6802157369,121.755107015
37645,46.5979287586,-0.141805474969
37663,34.5030365948,-91.8241574119
37698,42.4877278034,-74.1671298732
37878,37.9579216254,-111.840265211
37991,32.0362848943,-92.5852226427
38017,37.6869457472,-108.494394654
38070,45.3355448569,-0.22548867748
38163,36.7544059398,-93.9081705921
38168,40.754318284,-1.96172497445
38425,47.2468045756,4.27108523038
38578,38.9088805725,22.5594652627
38586,48.694013003,-1.74144898277
38721,38.6175420524,-87.550467948
38771,46.1537593679,-113.079803145
38779,35.1565480664,122.887826639
38806,36.3827531594,-98.0490921055
38818,34.9552157798,-109.847407849
38828,34.5230977502,119.741509598
38967,35.3310701249,121.186570219
38987,38.4099712121,13.0746386295
39009,48.7462254433,3.21027745909
39121,55.3166363251,8.4312499753
39160,40.3795496674,-69.2583213702
39214,11.4580479661,96.9556831235
39234,45.2087673647,-52.1633733275
39324,-21.8294536785,147.30800231
39363,31.3929903851,-92.1359299851
39649,37.3445658785,111.800673421
39690,47.6282407945,-25.2337508153
39694,40.6555846492,-1.57592717793
39766,35.9028552433,-77.7428097607
39879,42.2037232797,-82.0756291716
39935,36.9565271513,-73.6611325869
39936,40.9376500505,-98.6221687419
40007,37.6039455177,-108.525638039
40012,39.9670497065,-88.4420617837
40059,34.9077964381,-109.127162017
40155,23.0630093727,-64.706574994
40310,35.4017950322,-110.86076663
40327,37.2745021861,-76.5537427442
40348,45.3300650493,-112.431070458
40353,-21.6581293094,119.709249703
40417,30.2697985219,66.1183956205
40527,44.9730070984,-75.8074413563
40534,41.1018951447,-71.860126874
40621,39.4786751439,-70.3012443044
40636,42.0746973581,-67.4399597444
40679,35.1701304221,-103.365687359
40685,22.3275854924,-63.9701300533
40711,55.4372469594,8.49189288627
40799,38.0289749315,-79.2351055714
40807,39.1528391449,-96.8639998174
40868,38.8013593894,-74.8184704542
40885,38.5056251221,-50.5898063239
40889,36.156578663,-91.5782987788
40994,43.7373412542,-57.8999286329
41002,41.4387061057,-100.05659147
41084,52.0367709895,-33.1496649123
41191,50.3061085058,-3.97681128939
41418,47.2819787818,-94.8878867039
41484,31.4732608327,-77.9643482139
41516,36.4003414823,-75.8542194506
41681,38.2618765406,-111.513170474
41705,41.2859959336,-66.6195583111
41880,34.7983276769,7.53422967725
41990,44.8641878231,-1.16271921136
41994,33.8271327313,-88.7237369863
42128,0.571416489526,10.665291619
42165,39.981174182,-11.9322018553
42174,35.5919600978,122.698341118
42203,42.2529191859,-73.6422164443
42281,39.0538359625,-75.2407991631
42288,37.7399127565,-103.037496963
42303,50.8604338391,5.54484984603
42389,39.4859265723,-89.0843526505
42521,39.341032471,-83.072603553
42617,34.6962991956,-91.6008408438
42730,35.4897795993,122.943828949
42805,34.902046936,120.995062933
42858,51.9832838898,32.1578026831
42904,54.616375163,15.8001856527
42941,55.2616991645,22.8109944763
42962,7.95497271757,-6.80221887659
42977,-17.8379187239,95.4121447694
43055,38.1695230554,-108.494146387
43059,39.3149579584,-90.1793217868
43066,39.8945798578,-112.884600623
43108,32.3985534777,-94.3143564914
43419,38.9944573603,-67.0638976587
43492,-20.6451751422,114.94594304
43493,37.3435106651,-109.065401421
43544,39.493213282,-101.265133114
43576,40.4203834248,-68.808173194
43677,37.0835504767,112.142710399
44011,39.2265747737,-98.2489308058
44067,41.3099245783,-77.0180320915
44171,39.2998030741,-85.384232588
44222,41.4871007484,-80.8005031465
44419,39.5201783867,-97.5162487557
44508,7.86931036556,-6.63461512517
44512,38.5758502187,-110.959559159
44526,38.1681691209,-107.014309
44603,38.5894813264,-88.3656845042
44630,34.9110762164,-76.2329898274
44643,49.524387824,8.93462367755
44689,42.2039031287,-74.3043958415
44706,36.933336002,-75.7549631296
44833,44.3607330075,-67.2853222039
44838,55.5766541247,21.4492266242
44881,9.44023265455,91.1599344993
44889,35.3413574539,122.406010249
44894,-17.8623135894,-74.5155674686
44976,44.1192606546,-32.552834583
44992,29.0139354381,-77.6431959503
45026,48.6307008842,3.58565807863
45046,48.42048186,-1.65635559373
45054,29.2268352664,-77.5169895027
45073,40.5835909489,-104.372820786
45094,10.3645140744,85.2715908198
45103,49.3481191415,-3.51981460212
45113,40.3053105552,-69.9300674965
45135,30.7018151541,-77.9028713414
45181,15.1519777253,46.5712172055
45278,40.5375872264,-104.433530506
45341,45.1201662067,-113.57422727
45348,48.5577246194,7.97212763628
45380,18.4673273184,-32.9394006122
45451,35.3610702131,122.973598081
45552,35.2470274252,120.787262241
45619,39.1022788832,-77.4530480166
45634,47.8771550626,2.7590303561
45639,39.2734323929,-71.5900576035
45651,41.2638737763,-76.5715181594
45719,38.4588949351,-113.692460426
45779,48.9180530805,-2.35616645992
45843,46.2625050465,-108.031037444
45848,30.1084270531,102.00283962
45881,38.2982061857,-114.049553288
45911,40.8441675663,-73.7797011386
45924,41.9178525343,-74.4491889853
46030,35.4800664946,123.656538332
46113,8.79671784897,86.83292932
46115,30.2792598635,-78.3201212075
46352,39.9527109177,-69.8786030296
46528,35.2009960713,-110.425423342
46598,46.0334385316,-110.520021396
46607,35.2078371196,-80.4118023172
46674,34.1886479906,-88.5600166667
46715,34.7852885798,-79.6254063459
46789,34.7753398092,-110.228155363
46850,50.4435380829,-8.82810114701
46871,36.6044980607,-74.4364862385
46880,37.5919707623,-112.9465442
47060,55.2420562737,8.79197604334
47097,41.3369220651,-78.3371522868
47135,40.4663644302,-73.1575586116
47184,47.3878629317,16.0706141395
47247,34.2964443905,-90.1753827834
47258,44.3168758545,-69.2846332722
47272,32.0625967827,-92.6024956394
47358,34.8364858202,-82.0072779038
47412,35.3240509601,-110.579200004
47592,37.9055184369,-113.264247155
47609,40.3059107683,-70.4245022212
47681,40.8768262768,-73.5830084008
47726,41.5036836241,-82.2144073367
47960,37.3761526891,-107.482185513
48034,48.5963176109,-1.73159057946
48146,38.8891955312,-71.9665129016
48150,37.6605519253,-113.557011007
48223,48.8174321815,-37.0728723258
48254,40.6693428701,125.988774203
48260,39.3294772949,-81.2420360986
48295,48.502349227,3.97061624755
48321,45.0802331363,-112.563625685
48355,22.9267276925,-62.5776787044
48457,42.2264658788,-66.8887441648
48833,18.498559551,15.3424832676
48877,43.862385692,5.79909718506
48911,36.9378504452,128.042689539
48914,43.4442639119,6.41150513678
48923,46.2472280371,0.5653109553
48941,34.2321936958,121.577458318
48958,47.38445934,-55.9439429005
48962,32.392880395,-86.0386695548
49070,38.1313118046,-79.842945178
49088,28.3739666782,-76.9839493935
49168,30.0651274532,-77.6575503543
49171,40.1217000748,-69.5813620582
49331,49.1903824358,2.41006591729
49346,-17.8842248942,97.7391577448
49362,37.6853297646,-75.3405309248
49377,34.275965568,-94.9305326037
49385,23.4727952043,-94.5044094883
49447,44.3882639214,-113.77430432
49499,39.4150951224,-98.0908200785
49590,43.1512421755,8.44424796626
49675,35.5485821706,-111.036462937
49797,35.4656817553,-109.945481631
49834,43.5549257087,-38.1728611243
49851,36.5553265163,-58.3029047343
49869,52.2791089126,-8.05176276746
49925,35.8250641283,123.913340181
49941,-24.9196390701,146.783685516
49944,40.1490899683,-1.67388643946
50056,49.8868260345,-4.93436457445
50072,37.826597717,-92.9602566396
50137,37.5240188128,-112.627685728
50157,41.6335453886,-82.4274247549
50188,-13.8315942343,128.299109024
50200,39.9565488271,-102.905855181
50329,44.3699590038,5.3607147787
50349,57.7325364407,8.19534254515
50389,37.7379957788,-75.7473109808
50429,41.4955727991,-77.5074738376
50441,39.5462331547,-97.6669539215
50496,35.0668013936,-110.147070683
50532,22.8903482004,-57.3468253615
50635,36.8653152313,-85.9872249906
50785,39.5455625931,-97.1994331409
50817,55.5304772619,21.5032266964
50841,32.2138635864,-77.2193886247
50874,-21.9214037879,120.212213098
50920,40.8272291161,-80.0372575993
50947,8.15296521913,-7.19312005896
50983,42.6869175948,-74.5132166349
51096,44.5575495575,-110.249487191
51101,40.0954283541,-71.9598855187
51149,35.2774881012,120.648645537
51152,40.9217591795,-89.9762671266
51184,48.2851765237,-10.1409958633
51322,46.4018731084,0.283268239593
51475,-16.6994813893,125.542216665
51520,34.041440365,-78.7190794911
51780,-19.0597852364,127.10035288
51803,29.3395947263,-76.9017769563
51807,34.9674257958,-82.4870735271
51819,34.8603826012,-93.828265139
51843,47.6646106551,-2.89096403713
51862,42.1897607112,-80.1191352663
51970,36.3137511044,-74.6861619277
52080,44.0925460466,-71.168126941
52204,44.2865578875,-113.626949606
52215,42.5196417426,-107.214011271
52237,34.4291125483,-79.3571341686
52257,40.4893101812,23.2595877404
52260,39.8295056239,-82.7821006683
52273,35.3421388582,-110.906437488
52277,34.1935927462,-91.3310680396
52338,-17.1782154659,-70.9559772386
52551,31.7153213559,-78.8800876736
52564,40.0786725126,-69.4132219786
52568,31.3276864313,-74.0801870848
52657,46.9586535943,-114.210701837
52796,39.3986581493,-74.2872729153
52797,34.6457005151,-91.4102755354
52809,39.0244085087,-90.9285478812
52893,34.647690846,119.739403128
52966,46.7098978596,-2.15865991205
53081,39.1444313958,-88.6168672615
53167,48.8823014138,-2.31409887996
53172,38.054358314,-70.4329445631
53177,39.8707034659,-80.4605138215
53193,36.8417375479,-100.278410154
53385,36.4087131205,-75.3876633682
53423,54.7920950678,15.7437028272
53437,31.1686673796,4.01753558786
53474,34.7740036598,-109.666072526
53595,46.1928389239,0.623275597491
53635,39.8047963246,-61.6976533759
53716,37.2554874374,125.820577756
53739,38.8719556835,-87.8997630673
53810,36.7939799621,-71.4057981372
53832,49.4916219123,-3.77039657469
53834,39.1450874683,-96.8423621989
53881,-17.8488976566,95.0623419983
53921,50.1965296342,7.45051515352
53928,40.7057562972,-82.9875256821
54060,38.111294429,-109.401050507
54084,35.9387404637,123.120236752
54085,40.1372174712,-69.7164928118
54126,31.281328701,-77.7707574063
54136,4.19479015337,-36.4222366031
54233,36.1096609682,-79.2093725078
54256,37.1112376775,-100.856130116
54338,39.3605434043,-88.957979615
54342,46.3087612066,0.370138661897
54438,40.4018900223,-78.5172888443
54483,40.5387705291,-66.1138897909
54508,8.07691314591,-7.06807474836
54514,42.4075508961,8.40828846082
54547,41.5785238087,49.0866165333
54575,45.4875887647,-107.462390923
54664,48.5297280057,-1.63274939798
54719,31.1016643269,-91.7885264676
54787,48.6596031309,-1.99084401069
54826,7.92587965173,-6.74630117728
54835,40.3716639423,-69.9935775209
54928,44.0290434003,5.43239000098
54984,35.4382692999,123.09084743
55004,39.2311619484,-91.0297737207
55039,46.3159795913,6.13700609733
55256,36.2490103449,-77.3201632398
55423,35.2155678407,123.488873717
55493,38.7009968963,-107.986003385
55822,40.3119145348,-73.4218234237
56023,33.2577466385,-84.3971863481
56109,31.6258045306,-91.6960481234
56187,34.7560815204,-109.551529923
56195,46.0740138437,-113.019117592
56199,44.4041684858,-113.839323737
56340,39.2909780932,-98.3797521873
56474,44.7901873296,-86.1755280565
56520,32.2458518985,-91.8800017051
56644,48.1155045389,-2.13431138957
56662,39.772891112,-78.2532364462
56695,38.420567794,-99.0331035596
56701,40.9094310665,-87.4871300079
56717,42.4653467905,-107.19847991
56754,39.157475063,-73.3384761443
56760,36.0532824173,42.8905718196
56764,48.1914903912,14.1200179057
56778,37.5117079493,-112.697464852
56780,8.40752700687,-7.69570729343
56907,40.2248966757,-95.2023302935
56913,33.0623149465,95.1256998989
56933,48.5627316306,-4.17055433414
56997,7.27533043773,25.691402081
57025,38.3451103369,-83.4270148081
57034,43.7543005876,6.02589590235
57035,40.0414579051,-98.6497705638
57079,38.158899831,-82.3002771245
57082,49.7381380145,-3.04428966204
57154,38.3579180852,-71.8860722612
57163,38.6932340202,-85.1091346399
57184,44.5963786465,4.24036534669
57191,31.1252598602,-118.846204729
57258,32.3949772122,-92.6071981202
57425,40.5245947006,-70.6782798392
57433,35.1984215954,123.385557568
57479,41.0164041603,-81.2432484771
