Id,Lat,Lon
18,43.4089922948,5.03917088073
65,34.2045910157,-92.7158094287
90,48.9239311277,10.6514747735
92,36.8143148877,-112.994899746
107,38.0570271965,-93.703907461
109,36.8747291793,-107.119866927
174,41.0762046616,-77.6407719879
302,38.3120097938,-78.6080175078
371,39.5433242783,-38.7500128063
388,35.6256970092,-82.483803776
406,49.3603768399,-1.76295270355
408,35.1716337779,-110.71609049
442,23.5842852669,-96.9304648684
493,36.19459124,-113.167643124
533,36.5394333047,-98.3045985763
622,39.4410665064,-84.3077160371
626,47.3514251401,-99.923244994
691,39.8008378692,-39.9389966056
698,50.102731894,-2.89099287354
788,0.836002373361,99.4697981206
950,36.1738976526,-102.153209828
979,32.9190144581,-109.435745343
1027,41.6498127712,-78.8577473709
1110,32.925930206,109.680375022
1150,32.7749706036,-30.2036770969
1225,43.335964389,-67.5889783243
1227,43.8157348123,-52.8158012385
1263,40.1897230946,-88.1694556166
1323,45.3590988347,-109.251907898
1402,28.8775254533,-47.4155306664
1407,38.7395189943,-99.0092464684
1444,35.8174838962,-99.8836717036
1504,38.2031012533,2.16341766972
1740,41.3031213779,-99.8008540732
1868,43.9806943835,-92.0060140023
1903,38.6990291113,-72.5820871648
1931,39.8102770564,-99.3265687404
1967,44.152208257,-113.10066799
2006,26.5442536912,-118.656582508
2040,64.1773796227,18.9906530547
2056,41.4455724652,-82.9734391675
2096,38.2947652868,-108.945239094
2227,37.7577460243,-73.9012771189
2352,-19.1624379998,128.247183737
2427,39.2905210919,-68.0117055865
2569,40.8768970737,-70.8305613659
2698,35.2803605228,-78.1943440009
2707,-0.0607158665913,78.5953355856
2715,46.5243358677,-24.6646969211
2761,39.2892256526,-72.9017428799
2799,27.4778459227,-75.3203580818
3018,41.1399857733,-97.2304616477
3036,49.8759149969,-1.86686009682
3045,49.2884110779,-2.11274222595
3048,33.1967003529,-95.0338100695
3244,41.1571631778,-102.064048273
3326,44.2242483838,-34.7424106209
3388,48.4040943232,0.996115073793
3390,36.6590521638,-99.0412516235
3409,38.3353306173,-96.4484870878
3438,33.5506198298,-109.076101627
3461,41.1281077887,-64.2255201091
3498,-20.1079615593,130.057595049
3508,34.0089833287,-111.424102267
3577,6.91030468732,-5.37320445394
3673,34.6520882849,-111.661046895
3810,42.7532377398,-68.8191349858
3885,33.1576753024,-95.9250367888
3971,34.6802030042,124.401211847
4050,34.8006559367,130.413628694
4065,48.6669305372,6.39618185919
4273,44.5980229925,6.77418839981
4280,48.5138187471,5.83461232009
4309,34.4899158721,-73.2337732615
4312,42.6030973204,-105.862226015
4571,43.2332764313,-75.5176379418
4593,39.602374236,-74.2373422354
4615,56.3271687285,15.704405485
4693,37.5611922543,-108.5065341
4713,48.7707046187,2.79201550119
4722,49.5760020757,-0.943037697368
4837,35.7954153945,-112.639857022
4990,33.8599053051,68.8021798039
5079,38.2935715784,-82.7834128489
5150,41.1717935919,-65.8663016139
5242,34.7174255692,-111.336935262
5325,37.0223451388,-108.095636688
5334,32.0029155729,114.62391051
5339,19.0834886148,108.04104089
5460,56.5414456032,9.51815211894
5467,41.1557583152,-61.7306344441
5490,32.2497304106,-96.0864146444
5532,39.5666615176,-73.732516772
5554,34.7923172914,-63.5828715669
5567,40.8759940006,-67.6759861928
5604,49.5873721685,-0.117936793866
5613,49.2233271795,-107.088884249
5617,39.904986776,-13.485738221
5662,38.869331138,-112.738252927
5667,38.0392191019,-88.7658771233
5715,40.3978693754,-78.202840824
5778,56.3765316081,24.8179844884
5976,34.9645143736,129.975667455
6068,37.2315414327,-92.7961509229
6098,39.1635694491,-70.8300471486
6168,39.2653388247,-67.7703300134
6260,33.4996854719,-104.14078014
6295,39.1967779068,-69.8112300375
6348,33.922047492,-94.4723612117
6384,43.7580055196,-73.0360769236
6406,42.1802984747,-73.3362457129
6417,37.2573632632,-100.170649668
6472,37.3432845496,-84.1724633637
6483,36.1978033004,-91.50063921
6641,35.0354656841,-66.3802380944
6692,38.1645985662,-86.9945495779
6738,37.8772117815,-92.8463057376
6811,45.6570596613,-113.835793667
6860,40.0929505479,-75.7307920646
6865,39.7857999028,-93.8231806369
6898,55.3959363653,17.6263391874
6903,41.6147470088,-83.5588251294
6971,37.9345458433,-93.532170253
6995,39.2695520573,-97.4869724106
6999,36.4499718461,-108.235118564
7302,34.7915411984,-88.5268404095
7304,32.7950793791,-97.7942906177
7317,-1.72327479716,-54.7559295787
7390,51.1637888184,-3.14099343988
7413,33.2781046291,120.03975464
7417,41.8818506625,-86.2639903013
7460,29.9636701273,-88.2936458918
7461,32.8944195529,-75.7250416372
7466,28.9932689143,-61.270982377
7526,36.2424817128,-79.9247487973
7554,45.6497261983,-38.1492089761
7788,25.3604751592,-49.4148532471
7883,6.4966960072,-4.35172209855
8071,41.2547722023,-79.9110742411
8079,36.221035023,-90.451156929
8124,46.9649254473,11.4768976698
8188,37.1277048906,-32.2979611876
8194,38.7020126039,-110.987291032
8252,44.6730492452,-110.965350848
8295,44.0446470588,-78.8600365665
8296,1.05000175428,97.0387864286
8415,55.644519854,15.5416575798
8533,27.7651087987,-76.7035784647
8641,33.2899483724,118.896389708
8650,48.8913822782,0.22092537785
8652,49.9421096162,4.01371142356
8733,38.2986346909,-116.32012581
8787,6.06037026268,-3.75220495058
8790,30.0042580218,-78.9633650731
8916,35.2217865652,129.673865502
8941,37.7669462919,-115.070456607
8966,29.4696643029,-79.7080297814
9024,34.3701431961,-110.944131
9050,-24.2733819079,126.014181471
9071,27.90397925,71.0709538798
9197,37.7692052114,-76.7477307206
9279,41.8815502366,130.94088707
9283,34.491012713,131.15915337
9445,41.3905600643,-72.8150458971
9801,37.9992655206,-109.831113931
9865,49.842200426,4.35924044379
9868,36.5357975664,-112.369001783
9908,55.0040564389,16.492515141
9912,50.6779011557,0.664924262515
9945,58.5885856608,4.62706973541
9981,40.6189118265,-74.4879360563
10042,38.5670109374,-116.730130384
10044,31.2074277463,-91.9924046889
10114,42.7855338407,-96.3387188621
10165,35.9834024542,-96.0178740066
10226,41.7295402381,-79.022444305
10264,34.8548466062,-102.95671165
10312,43.1317677787,-70.1810052761
10383,-4.68783732268,-47.9518712487
10436,34.9250790805,-16.4046105235
10693,34.0618761553,-76.6589751684
10770,55.6476980665,16.7995824821
10832,46.0763911215,-35.7255112745
10842,39.1935333702,-73.7750541561
10876,35.9844579831,-77.4632737618
10905,40.0550694481,-102.302393006
11058,44.1958068615,-77.7684445986
11084,34.6724840823,69.047641054
11100,27.5857256711,-38.7800473652
11110,35.8145668331,-108.839501098
11114,37.6304476829,-91.4271522897
11259,37.3935383491,-9.69867364711
11276,7.82789558572,-7.29617403642
11278,41.5912692452,-79.9952458134
11316,48.7237976479,0.0395426933274
11342,42.8752317079,-96.7644998391
11532,36.8235764079,105.307304746
11570,38.5795534583,-72.8855635089
11584,17.1052230159,38.1877481902
11628,39.7336048025,-100.374055082
11657,48.9850503908,3.22169914188
11698,39.2220409346,-81.0302056186
11706,32.9343965149,-90.1097747907
11784,36.7023369949,-78.8031637187
11806,41.3496716801,-108.063532921
11808,36.8224064518,-110.429938928
11816,39.9286954452,-75.7377717311
11830,33.557828562,-84.0466209828
11865,37.1823134267,-71.7399084144
11931,35.2028993902,-83.1647454348
12045,-12.6140132252,77.791453147
12126,35.4735287783,129.176305841
12237,38.5612218457,-116.599366676
12312,32.8252321946,-108.946661117
12413,39.3601814557,-75.1777408555
12467,40.9464623477,-101.599599537
12492,44.9895290082,6.58352287829
12676,38.6012136585,-116.608136107
12694,39.7985448899,-68.4536172461
12966,41.0063180753,-86.8629933051
12993,40.4480891608,-101.134112412
13036,40.1877297564,-100.665400886
13154,40.6041398831,-92.2203403697
13161,38.0147144627,-91.5654798991
13166,40.2121715047,-87.2533397926
13223,42.1045368047,-1.87114933358
13243,43.6734766089,-88.4109059682
13252,41.9076049865,-68.3051887555
13271,38.0995359705,-73.3168322039
13293,34.5983087122,-84.5802146847
13369,39.6488530777,-99.1757531342
13397,31.3042181599,-91.1601277518
13432,37.3836774908,3.73474992014
13469,31.7848964386,117.396915298
13474,31.9222199512,-86.9036186472
13494,29.4153959083,41.8236800221
13556,56.6829453516,23.8073165617
13643,35.9624838385,-113.130364822
13711,35.1345848792,128.127984561
13805,36.9520708674,-100.332348926
13853,44.7023530882,5.95889937793
13907,41.0705192839,-79.3528512114
13933,34.3542737673,-106.107944634
13974,39.6361683115,-96.69438155
13977,43.9714070852,-28.9666450542
13984,36.3353870248,-82.2978938815
14017,41.9561545803,-84.0338087907
14050,8.4779674767,33.2471332302
14097,7.99372501973,-7.71033417933
14099,31.7633714697,-81.052667356
14174,53.0387177976,16.5548377275
14220,41.6530925171,9.30695185274
14266,31.8610118001,-92.3535132369
14278,27.8955115656,101.199532931
14346,40.0770907319,-91.7740838501
14391,48.3695897355,7.39196221634
14394,36.3174025737,-83.0331828171
14421,20.2890422547,72.4574379433
14432,-17.2055356885,135.414916684
14443,32.9796515379,-74.8138746374
14564,43.476178477,-76.2980748245
14618,36.0309036662,-83.313156111
14624,35.1629062948,-81.0498198369
14691,46.4348977979,7.28778686086
14703,36.436121784,105.12945125
14756,6.55533540534,-4.65561974418
14781,34.8035901269,-111.720825485
14803,39.5804330132,-74.8186392354
14821,24.2266687828,41.2264369368
14840,42.5605975087,12.1411608889
14953,7.97574179633,-7.5239907063
15086,36.2591006709,-82.3735608391
15100,34.9635371436,130.059711416
15109,44.7614662571,-44.224097304
15193,38.7360595992,-59.714382156
15340,32.0075654599,-6.72495126325
15476,36.5980879149,-82.6568785633
15649,30.1914131365,68.3225223186
15657,32.8309692757,119.065643427
15824,41.6582889463,-68.8124943851
15880,37.4411667346,-94.1674183888
15892,53.5826002718,-5.80604679769
15921,41.2941219238,-7.98971594617
15930,23.2012997735,3.43312535564
15950,56.9581053198,15.80138348
15967,50.8256876094,-11.4451279938
16016,41.1067316626,-64.9210829927
16030,43.5434242824,-116.336566766
16065,42.9014606686,-112.054047506
16204,41.3785283767,-72.9268161039
16324,44.7385099215,-101.424901193
16340,39.7430849766,-33.9995831823
16368,31.7623195859,-81.0561866515
16391,55.5574108411,15.4929944801
16476,20.7684900446,62.7152402224
16568,34.6144990308,-1.89578371292
16703,28.51434754,-54.7618930471
16712,34.4334626063,130.979328111
16734,33.6185031008,-103.737871022
16886,40.1095631584,-75.6526111661
16939,51.0254820816,-2.23386799173
16942,20.6066314052,62.9476994095
16962,50.6424813296,2.4018287497
17053,29.8480591143,-79.3304920035
17062,41.2134401242,132.549669716
17095,38.5072092356,-113.896816888
17115,45.5902016364,-113.332429156
17149,55.2015345271,17.9634618336
17248,2.9665900323,-73.4156199793
17253,43.0403690046,-66.3742799339
17378,39.4874645602,-80.0142787562
17396,55.0792861723,18.2177641671
17445,43.4125658541,-85.1584644873
17591,35.3294555945,128.612992643
17596,29.1848462308,-114.74963771
17701,30.8925504605,-90.4854663265
17931,51.458042468,7.8141025825
18007,49.1271190098,5.02439877424
18036,35.7357453508,-113.798022108
18048,35.1764088969,-100.018522203
18220,39.9007994169,-71.4632509289
18262,35.6414910401,129.065022876
18312,31.8199473538,-81.1589841605
18454,29.92705716,101.470372266
18465,40.3460841496,-83.1860199703
18501,42.2407851295,-1.99328465012
18666,40.8733664077,-10.7365270007
18777,15.6154294015,-9.91864385217
18780,38.5602647966,-95.021654796
18794,41.2493787698,-102.403543861
18812,39.396309401,-82.8986066511
18868,15.6493219476,-56.4077072521
18925,35.2740513525,-82.1949689779
18948,38.4116939894,-116.21943462
18956,38.6494365789,-86.669031547
18959,35.9814149878,-82.4461700682
18960,37.8555539214,-95.6292497239
18973,38.8464170576,-14.1690210969
18995,35.1434884403,129.790400044
19094,23.6259603792,-43.677471072
19119,35.0264563267,-112.587199737
19130,30.5692647771,-90.6340017303
19138,41.6390694913,-81.7557947598
19311,37.227392021,-71.1223903931
19333,33.8719159336,-109.101154607
19373,40.6572267343,-73.7585256066
19502,-13.7805174051,16.5214729709
19511,34.9544728604,-112.001156021
19696,41.4780007496,-105.303422004
19738,56.7264549207,27.5572011547
19740,8.61356153171,-8.84156617889
19802,39.6442221918,106.667042381
19835,33.1985932856,8.94940752731
19915,48.1440541281,-0.581530066531
19954,34.3839753471,126.084574328
20039,39.1801305897,-74.0567148191
20056,36.4313044525,-75.1925757826
20139,57.1630282646,25.2616088878
20318,27.1623659281,110.630135439
20385,44.3078749535,-88.7287522609
20410,6.62289014513,-4.83280213123
20448,49.6510424559,-1.41888769973
20494,44.9185230537,32.3291257135
20511,48.0300498214,8.19411314435
20599,44.6399696913,29.9970448481
20606,39.907387457,-99.445642313
20619,37.4274342101,-114.053217051
20734,28.2210067271,108.466089675
20765,49.1509269687,-2.00966507943
20949,48.99549184,0.0758025986483
20958,41.9017299725,-89.9961842813
20962,35.2719106633,-99.2336547229
21057,42.7827174837,-105.707297643
21169,49.7022977001,4.43467183991
21267,40.1354249768,-78.8946807298
21339,39.834248432,-85.2226336357
21388,46.7948010939,5.03756014232
21394,46.2928902023,3.06678194376
21445,43.8885687166,-62.3674658643
21582,-16.5990951241,114.374856063
21608,35.4649821983,130.051945142
21621,56.062850553,16.3427696654
21766,42.838977676,-75.3809324248
21872,35.4450532398,-56.8864731373
21911,35.1241581185,-91.6086193254
22071,35.7768308089,-89.9640070333
22093,47.4484204119,-38.664060904
22101,35.1821750536,130.087477979
22163,40.2695407916,-93.7210063194
22208,38.7167592778,-72.8203245671
22224,41.6782256291,-83.2693929037
22231,29.5373776696,-88.1844460744
22393,40.5200674473,-20.3656712266
22435,40.0073449782,-69.301561461
22556,39.844201805,-81.9151437354
22602,36.3653602992,-65.9879284461
22682,41.9219875926,-79.6709096724
22800,28.7074721276,102.748587792
22960,8.29465166402,-8.18277844259
22963,36.7092872983,126.637816552
23078,33.6704054889,-56.0651595921
23106,55.414333343,17.5672902777
23321,-4.82144724311,23.9020321492
23368,44.8877707047,-39.3674147985
23435,33.3832168288,-91.4952816966
23638,42.4782898469,-112.643561438
23639,49.6607702246,-1.38551171991
23683,46.0612514581,6.72262716632
23696,32.8679367153,106.885587323
23748,35.6260040746,-99.9635099634
23822,35.207852071,129.534486697
23835,30.8693246648,-76.0431438486
23840,50.0272719815,8.63042399138
23857,24.4219623798,-150.078924699
24033,36.9455033318,54.2260004999
24047,-14.2588822067,17.5096545753
24059,53.3124000622,10.4647206363
24175,39.8670354212,-72.2312673067
24178,55.1457140527,-5.06679168375
24226,-24.1129416621,125.820982173
24345,36.956638399,-95.0613676866
24452,35.4588797567,-82.4921698236
24487,8.13519673018,-7.85338457444
24519,18.2468266907,89.2392483958
24629,42.5261499447,-81.391637435
24750,34.3918456627,127.714253958
24781,55.6215786729,0.465971196112
24837,33.8376935706,-15.5431703282
24897,39.6297138098,-85.6140051732
24931,33.4218936893,-103.940555972
24939,42.9423990767,-69.6219750113
24965,-8.12905510857,83.9995091542
24981,39.1143229025,-92.6377574972
25005,35.4002589283,129.502028288
25040,41.3999879513,5.01959454977
25136,32.4223166488,-60.3709954411
25160,35.9358901707,-95.4027295701
25194,47.7537259007,-42.8190577901
25231,39.9557092618,-91.2981694847
25262,40.3693678737,-65.9244971786
25356,42.0121299887,-94.1938820808
25358,34.803496775,-111.768317619
25529,35.4322855354,-73.3497215972
25573,46.2755041602,-23.0062325035
25663,40.4438191724,-100.483039677
25748,-16.6249734931,135.970440015
25814,41.9919184823,-73.1054914877
25859,37.3728939652,-95.9965449575
25926,39.6999612159,-83.044585186
25948,6.5553059752,-8.59478120222
26017,42.0802973032,-81.8553045604
26152,40.4057184632,-79.8360386792
26161,33.2984081423,-103.695391546
26184,49.6719492765,1.16432761437
26271,41.4990633262,-72.4099746231
26307,7.06841129755,-5.76947633292
26317,39.4949943384,-68.6022459332
26708,39.3606210312,-118.05131163
26741,40.2305687079,-76.1210542501
26748,33.3661311629,-30.3771919092
26811,55.4975882108,-5.84404381669
26820,39.2725876031,-118.364977172
26834,32.8794017282,-98.2632748958
26900,29.1756384592,-77.3896057092
26948,34.4422092132,-80.0452770939
26968,27.9186550291,-95.819434659
27095,13.2703731955,-15.6772341643
27139,36.6166678213,-96.440988941
27215,35.3123659827,-92.238524935
27255,39.1228767552,21.9621124009
27274,36.734600034,-76.3386108803
27283,40.5346069079,-70.4465970956
27359,49.7757494535,3.3758933515
27368,42.8590944392,-86.0470180638
27438,42.2147749299,-64.0226295021
27449,55.5459568756,16.2901197222
27460,42.9373356706,-69.9029936946
27580,55.4798429072,16.8914364184
27706,44.8561514011,-37.023803664
27790,34.8945683216,127.231305591
27938,39.526953398,-74.3422874647
28079,38.0773696118,-77.781799023
28110,39.7918029857,-71.7591056597
28121,42.0171121484,-87.0555161794
28124,33.2751182486,-103.571115101
28287,44.4590152319,0.54947805374
28315,40.2721418959,-83.7034597862
28363,-18.9140103091,-77.546444776
28405,38.3831141166,-72.0948415899
28500,39.1070723491,-85.582672781
28615,42.037679111,-96.4468346535
28672,38.65530468,-97.185696406
28685,28.8172273928,-130.177828195
28705,38.2339089728,-80.319385918
28885,34.3369697087,-90.1814879767
28887,40.3726103171,-100.972176509
28902,-23.8318177963,124.945034939
29141,40.8653595677,-104.815755571
29219,42.8770347033,-85.5937623933
29261,31.6587596312,-95.2982417608
29278,37.8895156673,-82.9731128819
29364,33.6353988299,125.772489457
29427,38.6927045304,-117.256893987
29517,46.8758829941,8.01804699309
29525,36.2999744647,-86.0072407912
29542,41.242721138,-70.5549725405
29623,49.4847572522,-1.30181570956
29659,39.7617836815,-99.3882377319
29692,42.504286753,-71.6085801477
29745,40.4358999648,-69.6008314613
29779,39.3002820068,-74.2594798438
29862,38.5938364155,-91.771511225
29870,45.5823490797,-42.717564949
29993,49.2499045477,2.4327521809
30063,7.01901219326,-5.54762749741
30124,42.9627958456,-86.0103513536
30137,36.6588466662,-68.8796215343
30157,57.9133013684,-140.283203925
30173,41.8724114466,-83.8381511629
30198,40.6774355051,23.8783930903
30264,34.2143533588,-110.7022681
30268,33.8816164107,-79.3643596936
30336,33.922843269,-39.3920244226
30368,35.739093645,128.731655535
30456,8.21457356915,-8.01925460701
30459,34.439990837,-105.014489289
30482,32.2159371649,-88.7467784874
30537,39.9319714006,-82.4086140382
30541,36.1635511652,127.207006829
30552,37.8724136531,-78.0891734866
30618,34.7835349894,-78.8139276091
30853,41.019512886,133.915006881
30878,27.9086154463,-76.9436989749
30947,34.7464552812,130.62727137
30977,38.9404559181,-99.10453643
31023,55.1240108745,12.3380330421
31071,37.596789352,-73.0781227323
31079,15.1857302002,-56.7285676222
31110,35.5261729163,129.117947674
31146,29.7422027047,54.7260906127
31150,33.6591084314,-109.597933591
31283,-15.5329094627,134.061405212
31291,33.7439118435,-102.590937459
31399,37.3966080913,117.080467442
31497,-20.8315588812,14.9189476273
31582,37.9852485324,-58.1151170852
31653,49.5353829167,-1.29489917737
31677,6.66749820247,-4.95340857358
31692,35.3372595421,-92.898475637
31739,39.3600559919,-77.7286795199
31823,31.5690213798,-76.395929599
31957,39.9428128781,-76.85452837
31989,37.9897148513,-77.5076995605
32064,37.7442136991,-87.6866362431
32090,48.4396020166,-118.14260489
32102,49.8686727471,12.2301744432
32217,43.5642984932,-59.1279770869
32241,5.95314489527,-3.20588649522
32326,35.3964404316,-91.1814974885
32599,56.0244062202,17.239037469
32609,42.6333631183,-49.182865136
32646,38.4492133901,-85.4548259441
32711,37.5990735822,-94.5730627398
32714,36.581763575,-84.491500637
32806,34.4650365513,-93.2035156394
32825,26.900557128,-70.0514814099
32892,49.5439720006,15.0079269827
32923,33.8262482375,-79.6439723788
32930,36.2606732581,-114.744929334
33056,36.6886003252,-112.022261026
33065,52.3178394956,-2.21956661015
33119,37.3899033009,-94.6511661217
33294,30.2049683189,-77.67826459
33312,50.0432675579,3.88475542902
33383,41.3144558008,-70.9840235571
33471,44.1053105281,-114.405121524
33481,39.5694621047,-68.4572896775
33574,35.9306974115,-81.2346793272
33597,30.9639399996,-86.5790144011
33635,38.1666622538,-86.3600374432
33679,56.6200562576,25.3778551144
33693,35.6171297601,128.900100656
33708,46.9690636251,-16.8859647209
33832,32.99126814,-83.7928218719
33890,25.0943610222,51.4424827628
33968,44.0555413057,-77.4524123352
33980,34.5602562025,126.310102111
34058,27.6089557425,-63.8667821733
34090,37.0673498135,-68.3789613569
34163,8.61356153171,-8.84156617889
34186,38.7960296816,-69.8691128249
34206,52.3728136193,35.5969286635
34216,2.65359281617,48.6702171372
34335,38.8433278224,-2.03323285784
34470,37.7808768827,-78.0166364286
34620,36.7765978759,109.062013791
34625,43.2319205967,-75.7607315137
34661,55.541570213,17.3309531896
34795,39.3997669351,-117.750714222
35049,41.6515564333,-78.0299865793
35130,35.4446165855,-112.850044475
35170,50.0148177746,2.38420985109
35230,38.9375765219,-72.9240230039
35308,35.9210592027,-113.949064181
35319,39.0679372617,-95.0457579228
35374,40.8573455875,-101.672565131
35384,57.0448759009,22.0862237645
35397,38.653777392,-97.0872237412
35416,43.3708694659,-89.7920123387
35423,37.8036961179,-57.1124531834
35533,38.665478376,108.741492902
35556,39.7741078345,-104.16232966
35585,36.4176402833,-109.888613806
35651,46.424059642,-115.174110581
35694,31.8283801999,111.522911016
35959,36.136664461,-89.3735457417
35987,38.0114285054,-80.4104884095
35991,44.6568713926,-94.6165770244
35998,38.6926124797,-88.5522575861
36160,31.0531453415,-90.6133195979
36197,36.6570127262,-91.4283799464
36276,39.3622909659,-76.770257155
36331,38.3489327669,-76.7742408609
36351,32.9609058153,-87.4874037372
36355,34.714520161,-111.553781524
36359,31.1754801563,99.9021925521
36390,35.3030674691,122.423450525
36448,33.2403016117,6.50434489078
36468,38.0127942757,-104.423990232
36470,49.7159697019,2.8292853044
36510,40.1216031593,-1.1909536127
36517,34.5369435045,-65.7943992499
36525,30.6225612541,-90.3609662934
36551,42.4593032933,-85.0198131361
36707,51.1462081472,9.53794224656
36722,35.727430637,-113.419816339
36757,32.3771750081,-105.73975864
36830,40.7763803364,-70.560898056
36859,34.743302541,-111.497897801
36868,57.1012837466,8.44234703617
36893,39.3238078846,28.1519884668
36917,40.2165128655,-12.1244211402
36956,41.4391839592,-89.6325166286
36990,34.6863899189,-111.498702019
37001,48.1792651828,5.23440645225
37052,47.888916219,10.128985932
37087,35.1602503418,129.660685093
37108,40.4757366424,-65.8886168076
37116,44.8955913379,8.81194876
37141,45.4220113367,-117.228252834
37175,39.371178843,-75.0815094464
37247,-27.0268265442,152.963404465
37269,42.0150880035,-80.7210296059
37305,-20.4184285812,130.84670685
37312,45.0540459491,-51.1273704199
37401,-19.0865637737,115.052627141
37495,49.0774041536,-0.446728603366
37511,48.7185972435,5.70278276471
37641,28.869670039,104.609580271
37645,48.2444711167,-0.882246155395
37663,35.3565809669,-95.0996733692
37698,42.2686225391,-73.8686566917
37878,37.4422225226,-112.344695483
37991,23.5362102773,-64.2279192513
38017,37.2831167504,-98.1774543024
38070,47.0351492282,-0.609571141316
38163,38.032112366,-79.6364450427
38168,30.5391310768,-5.72596417739
38425,48.0431860056,5.60926771188
38578,39.1517290047,25.1698825005
38586,44.3223965949,5.44381305586
38721,37.3913571483,-86.5286988378
38771,47.4203616528,-116.92035387
38779,33.8572279462,117.438334571
38806,36.5437927128,-102.589781873
38818,34.4717267534,-111.119785666
38828,34.1198098392,126.360678315
38967,28.0568339983,101.357335277
38987,35.4206845907,16.850976222
39009,48.821915592,5.70671977591
39121,56.0019808756,10.2274014945
39160,39.878922346,-70.3742852252
39214,11.1321541986,100.768489305
39234,37.0072517982,-43.4137391008
39324,-25.8050689813,155.150709483
39363,31.770922994,-93.9537438004
39649,38.285700078,115.159090835
39690,48.9743335356,-20.294174886
39694,24.7282841346,-4.27982202758
39766,38.8250522487,-73.9842434259
39879,43.1235943734,-84.7066642373
39935,36.1111414238,-76.9500919149
39936,37.1683391575,-68.3548658409
40007,35.7911801511,-95.9958869838
40012,39.9101207011,-85.2279914424
40059,34.4835518242,-110.384980242
40155,24.3568134059,-67.3874141237
40310,34.8319015858,-112.086112613
40327,36.1376275886,-80.6554190507
40348,45.4093202647,-114.15098135
40353,-23.0013242912,123.300447199
40417,30.5542919676,68.7551735535
40527,44.2520647143,-62.8566157131
40534,41.1687282561,-72.5085095461
40621,39.8112165981,-71.4502861464
40636,43.1831597455,-69.7698080243
40679,36.775821515,-109.417568098
40685,21.6644963689,-63.907557433
40711,56.8576450649,8.92279646282
40799,35.9361390205,-93.4716343808
40807,38.0796493263,-95.7846214312
40868,38.4536069023,-81.8185258922
40885,33.3438532276,-40.8930534727
40889,37.0037262502,-93.1406647085
40994,39.8882494734,-58.9142676651
41002,44.8967964389,-66.0452082435
41084,49.8208792353,-31.4653084253
41191,51.0505186744,-2.99352295357
41418,44.7518281006,-58.6302535998
41484,30.9588279719,-78.7187307957
41516,34.0042107627,-70.6852472171
41681,36.5847605455,-99.5409016956
41705,41.6710266169,-67.1292930345
41880,34.2861031249,-28.4111691879
41990,46.623835614,1.83500773367
41994,38.0998819117,-86.9068530021
42128,6.76060862961,30.4528663382
42165,41.3180285037,-20.4379101361
42174,36.5092864589,126.658575376
42203,42.3151045325,-73.5813306491
42281,40.0228123992,-85.6972065398
42288,38.9310802842,-63.5251732473
42303,47.0915175592,-21.7280514403
42389,40.5254150281,-92.5568229582
42521,39.4432347654,-81.0266361345
42617,35.1322332691,-94.4771895308
42730,36.0243504466,128.013806932
42805,25.0441148104,83.4809549094
42858,53.5320768697,33.2910139052
42904,55.9008834517,16.6076619923
42941,55.6618200048,22.4263621848
42962,7.01901219326,-5.54762749741
42977,-20.5066853775,103.977729899
43055,36.6094869478,-93.6081615351
43059,39.2612211849,-94.3934357447
43066,40.9789265634,-114.827826932
43108,35.1746226901,-105.708534555
43419,39.7924415781,-61.0025450099
43492,-25.779682817,125.118834429
43493,35.2513122869,-101.670420373
43544,40.123557184,-104.280916927
43576,40.2608073729,-69.0059083521
43677,37.2134027848,117.076578643
44011,39.1480126042,-99.7817597176
44067,36.6932748036,-54.1291175141
44171,39.032410087,-79.1519629352
44222,41.1191481997,-80.4762936502
44419,39.7918358151,-99.2467138159
44508,6.77947916455,-5.05470979368
44512,40.001783972,-106.530080496
44526,37.8479248591,-90.797630525
44603,38.6118383385,-89.1651394663
44630,35.3765345809,-77.8253438812
44643,48.9996752871,-0.0136220026827
44689,42.6230205353,-75.4382654667
44706,38.8222364924,-77.8464316789
44833,44.6134684764,-67.4536248284
44838,57.0483267688,22.1351317157
44881,11.9791443983,84.060277168
44889,34.9380742974,124.914327792
44894,-20.2503827055,-74.7419869924
44976,38.960182865,-59.6041044101
44992,29.5219597472,-80.2287325735
45026,48.2730422465,7.28290312446
45046,49.4105843905,-1.16495895069
45054,29.5463621767,-79.6102553534
45073,41.0074482353,-106.977484365
45094,9.60925700649,89.1922113397
45103,49.1965190212,-15.415877997
45113,41.2314529752,-71.879222915
45135,31.0657569184,-79.952289266
45181,23.047894495,-18.8223358246
45278,41.7331573776,-108.560456113
45341,46.5480129815,-117.450032614
45348,49.702617713,8.12535224899
45380,29.3866793176,-58.4940605401
45451,32.5250085206,114.257334512
45552,35.2700653095,126.61804192
45619,38.7999920212,-76.3821945238
45634,48.5246763223,3.93367862514
45639,38.9310088588,-70.9429247424
45651,40.7029165084,-76.0743236178
45719,38.7180613534,-116.245932962
45779,50.6343126455,-3.43662973153
45843,39.891229671,-89.6868966791
45848,31.567312112,41.0550522278
45881,39.2644132546,-118.090710182
45911,39.2861485994,-54.533710638
45924,42.024202089,-75.7871576968
46030,35.9123977441,128.780346228
46113,8.08714233554,90.8827217345
46115,33.1183319694,-83.8007939878
46352,39.8969759184,-70.4441935028
46528,35.1774067907,-112.602881195
46598,40.7780558278,-98.2684030014
46607,36.0086553609,-83.1570614036
46674,34.5128837342,-91.1161706492
46715,34.0703850462,-79.0859662311
46789,34.0673758281,-110.55906399
46850,47.1318037355,-31.8003770407
46871,36.1383727775,-74.5538983515
46880,36.6037417952,-113.348490457
47060,55.902670904,10.7695953881
47097,42.0849958482,-79.9181457595
47135,41.0619739871,-75.1596605714
47184,15.7532978908,62.2959982204
47247,35.0882877084,-89.523619847
47258,45.6843147522,-72.2260893452
47272,32.7181030431,-95.097501762
47358,35.5610345805,-85.2679814568
47412,35.848952942,-113.786715616
47592,38.1739284125,-115.762143809
47609,40.7974047417,-71.5478762551
47681,35.9478087384,-58.3922285312
47726,41.3522542332,-82.889077276
47960,36.9979815496,-98.8811944689
48034,49.6303981761,-1.36887724728
48146,39.2370164156,-73.0257830455
48150,38.6015121935,-117.022592414
48223,43.6717662777,-51.7485821588
48254,33.8959669036,45.8749867593
48260,36.7474887228,-88.9826639085
48295,49.287889576,5.14306404469
48321,45.0457264101,-113.472108098
48355,18.3322361656,13.5962636061
48457,42.8279945576,-68.0492423888
48833,2.69935807343,59.9681444077
48877,44.8920164621,6.25050395073
48911,36.5224424485,86.4523256832
48914,43.4712382436,8.96248292428
48923,47.0610446913,1.54539430692
48941,27.2257865517,100.328350281
48958,47.9808905665,-38.6039465518
48962,35.7860629903,-91.6338569722
49070,37.6032092211,-79.811151959
49088,28.6258120207,-78.4271444801
49168,29.3710741638,-77.4622003447
49171,39.9738160993,-69.5268578691
49331,50.3644607321,2.40549210755
49346,-11.5913443315,77.0198195574
49362,37.7543706402,-80.8061177968
49377,33.3983548862,-94.6297464487
49385,23.2084492899,-96.2363634881
49447,45.7723887898,-117.661396068
49499,38.4393696967,-99.0663574531
49590,44.1979985359,8.2488379399
49675,36.4692315479,-115.277798569
49797,35.2532276156,-87.7810341501
49834,45.1156899671,-19.3167027842
49851,33.3239355366,-0.00276478201088
49869,48.0719304311,-23.6023507876
49925,33.5422504639,108.377568826
49941,-26.9774479035,153.024755975
49944,35.6812802338,-5.75186909278
50056,43.7406483948,-14.064727399
50072,39.3138055043,-81.2597497037
50137,36.4165141403,-112.386881088
50157,41.7617503725,-83.7227242692
50188,-15.091929111,132.886957669
50200,41.0863660208,-89.4732780555
50329,45.7487411486,4.7934235975
50349,58.4622613225,8.15115520202
50389,38.4239696942,-78.1299168253
50429,40.8701349556,-76.8024402247
50441,39.6152804636,-98.930546467
50496,35.0559445112,-112.161776045
50532,26.0280657189,-61.6742085104
50635,31.5605331788,-61.9647595079
50785,39.359813237,-97.6613755904
50817,57.230070409,21.7522809454
50841,31.8702671361,-78.3145027687
50874,-23.762230421,124.821836585
50920,40.9933767299,-80.6856503768
50947,7.57710446172,-6.70050603593
50983,43.4329057351,-76.1479035109
51096,41.1812050875,-104.798718072
51101,41.424538578,-75.0701265362
51149,35.0940178675,126.45821432
51152,41.1814112492,-91.4253782929
51184,39.2136172948,-33.0531910207
51322,47.6779650063,0.32216382232
51475,-0.145429948954,93.2201574741
51520,33.3172299844,-78.0346436879
51780,-20.5555812308,134.317723181
51803,28.9491648829,-77.4910040532
51807,35.872534627,-85.6826188153
51819,34.3172152574,-94.4782861902
51843,48.3323378463,-1.47487188912
51862,42.4251014392,-81.0526376739
51970,36.4006501336,-75.1514428681
52080,44.9559804928,-72.7922624668
52204,45.4481948661,-117.176277261
52215,42.8709646838,-109.277450916
52237,31.5802035774,-73.6690259191
52257,41.1657845847,24.3762351153
52260,39.4822079713,-82.7093527148
52273,29.0581819235,-87.8928718393
52277,33.7362350544,-92.0279382796
52338,-12.2063663539,-62.2260379661
52551,31.7864106349,-80.2744017137
52564,40.3960397502,-70.1625455104
52568,35.0955435386,-69.7632721585
52657,42.8021767111,-93.584072374
52796,39.7712442229,-79.3289911441
52797,35.034104781,-93.7856260989
52809,38.8692303767,-90.728095025
52893,35.1259225626,125.861948013
52966,45.9243375857,-13.1015986981
53081,39.7043392005,-91.1326991699
53167,50.4983003618,-3.2706723248
53172,38.0948675108,-70.500991022
53177,39.2957212788,-84.311333254
53193,39.0736285381,-96.5829586059
53385,34.8196900583,-65.7202574625
53423,56.0591145625,16.2753220784
53437,34.9179129357,-11.8069264761
53474,34.1206424551,-110.618466051
53595,46.9255527301,1.79842904912
53635,37.0729569661,-53.5766997352
53716,39.1578982632,92.6016795861
53739,40.0214768437,-61.1039442115
53810,36.2298261165,-70.7149699562
53832,51.2031307815,-4.51298023442
53834,37.9340216793,-95.4324682591
53881,-20.7248783836,101.766407053
53921,51.3189444649,8.28229456573
53928,40.0670925538,-85.2184689183
54060,35.0264023901,-93.6208303926
54084,36.5364155393,128.724818566
54085,40.2421047357,-70.2328103384
54126,31.2387666059,-78.8509929506
54136,0.854103449792,-38.5183589125
54233,35.799062482,-87.266007237
54256,37.7620361824,-89.9037164158
54338,40.0728238488,-91.8618320093
54342,47.2441046903,1.0420249636
54438,39.3212517025,-83.6953318126
54483,39.5721162886,-55.009314139
54508,7.01101818616,-5.61379238306
54514,39.3020881754,9.79773957735
54547,44.1260086245,43.4885961584
54575,41.6726929057,-90.6731611481
54664,49.4849751874,-1.07443005501
54719,30.4742089275,-90.2611590558
54787,49.8418327538,-1.97347450171
54826,6.93893409839,-5.38410366183
54835,41.391560107,-72.2683475958
54928,44.9972730375,5.91321147753
54984,36.1701057747,127.95412615
55004,38.1917095937,-90.2445768993
55039,46.4594718751,8.74915833588
55256,35.2976550555,-77.7869269668
55423,34.8112379336,130.593362215
55493,38.7505192198,-109.532757104
55822,39.4843932942,-85.8930139867
56023,33.7310670496,-101.545783819
56109,28.2663721626,-81.0348338541
56187,34.0828628963,-110.333692995
56195,47.1518078235,-116.674610027
56199,45.7899737803,-117.80983019
56340,37.5916616033,-99.8285387596
56474,45.7986032877,-88.9963637515
56520,31.8481142809,-92.2647351741
56644,48.7114699133,-0.243164626312
56662,39.8573969865,-78.9100246873
56695,37.6243787789,-89.1666553585
56701,41.6273774801,-89.0368575787
56717,42.7175587629,-109.347201717
56754,40.0738241442,-75.6095522935
56760,32.2184593818,36.2550733728
56764,49.6566914203,13.9496381864
56778,36.8953304074,-113.506076446
56780,8.29465166402,-8.18277844259
56907,37.9239061153,-97.8088727543
56913,32.4193059296,91.8935433449
56933,49.5737887963,-3.16836258491
56997,6.89899944945,26.5790128905
57025,36.9368854923,-81.825860596
57034,44.5984552448,6.90136115141
57035,41.2877570837,-103.988904131
57079,38.4340067429,-83.5591122813
57082,50.4685167374,-1.81610558574
57154,37.7049444078,-74.2512527275
57163,36.9278734664,-72.4457817055
57184,44.3581638089,6.74891330128
57191,13.6125472089,-6.38700901427
57258,32.2302142368,-94.2628999514
57425,39.8682917719,-80.2097285023
57433,35.2401276473,129.377517733
57479,40.6998311823,-81.4692966302
