Id,Lat,Lon
18,42.5917827225,0.380828682241
65,34.3497806558,-90.4849315421
90,48.8619364435,5.28608049865
92,35.9549867859,-107.105250623
107,40.0067483269,-81.0789389805
109,33.6525178928,-99.9068118824
174,40.6232160493,-76.3831207173
302,38.1007403069,-76.5532889625
371,41.005360936,-64.7849195317
388,35.9544486998,-80.6463233411
406,48.2611052372,-7.68617899078
408,35.4571303804,-104.537838396
442,25.6496690866,-93.8639548021
493,36.1365605051,-107.964343116
533,39.568004125,-94.6631661481
622,39.5571143548,-94.9295297181
626,48.6255092211,-103.003415421
691,38.0467553139,-65.4406206865
698,49.3333286407,-7.7334926032
788,6.00276014556,77.1965115342
950,35.4649546269,-107.500016236
979,33.6354363121,-103.772959382
1027,41.2633847719,-76.9962855768
1110,33.5211715962,95.6392830054
1150,39.5562747947,-8.92941857899
1225,42.3766786241,-66.0648836131
1227,41.6210004312,-78.9068417302
1263,44.9230038085,-99.8735107521
1323,46.0359524687,-110.405440926
1402,36.5031572069,-107.961149182
1407,36.9960716853,-109.2169885
1444,33.562625032,-104.90264041
1504,48.1704107732,-7.12755198297
1740,43.8349550587,-105.390861776
1868,42.4439969136,-66.3554451668
1903,37.7151958131,-68.5199658449
1931,39.5869517751,-95.824087934
1967,44.8455450937,-112.462961795
2006,24.9017111567,-139.24985154
2040,61.216685071,12.5383879404
2056,37.6765246666,-70.5385110023
2096,36.9656358752,-110.097649587
2227,37.0110122126,-71.2819359989
2352,-13.5529856013,109.846918463
2427,38.1226013706,-64.7126768779
2569,39.9204442301,-68.7328466422
2698,34.4131541039,-73.161054337
2707,-13.7051894418,86.3787204983
2715,39.9030635204,-70.3444578873
2761,38.9856559577,-70.2939368327
2799,28.8824234345,-72.8823029113
3018,38.642146483,-109.115027426
3036,48.8719277898,-7.57272579421
3045,48.3374514968,-6.63576687499
3048,33.4114551717,-89.195219791
3244,41.2512133732,-99.0029009819
3326,48.8331600391,-7.53314742483
3388,47.2428181908,-3.6951579467
3390,38.935713061,-72.3047865521
3409,37.9392815816,-92.1441894142
3438,33.7240817105,-103.183768257
3461,40.0090359004,-61.016145473
3498,-14.5096166531,112.09356861
3508,34.8074295478,-106.732005937
3577,10.3207743667,-9.38015694561
3673,34.5664572705,-106.186202901
3810,43.1164952905,-67.6297295508
3885,33.8726516689,-90.4210171058
3971,33.1341255357,117.255349323
4050,33.6824787332,115.872469016
4065,47.2398477239,1.5991135501
4273,44.6409902721,1.50342066416
4280,47.2299360772,0.822547520584
4309,37.4312436351,-78.7769603343
4312,45.1938928136,-109.690625972
4571,42.7696150645,-72.5131305889
4593,38.3574866596,-70.7463598367
4615,54.7635043373,9.75642012042
4693,34.4175890036,-101.354527019
4713,47.1595878813,-1.18755856081
4722,48.5953958909,-5.95127821784
4837,33.5304918599,-105.639821328
4990,34.6430777719,112.966117535
5079,32.0371430845,-85.9986823594
5150,39.6319760591,-61.6980575281
5242,34.3940293757,-105.991717271
5325,36.0640434199,-107.118998585
5334,34.2197217807,114.082608428
5339,20.7597142005,92.1303290766
5460,54.1695449378,4.84248180831
5467,37.4039760148,-91.9074443005
5490,37.1906256092,-108.645924429
5532,39.9200822933,-73.153486119
5554,40.0380383398,-69.7336640082
5567,45.3571038918,-108.620667865
5604,48.4503190867,-2.98991852063
5613,48.4782251574,-102.746227161
5617,35.5591497999,108.117877979
5662,37.6101908519,-112.10001252
5667,36.5517326773,-107.819100299
5715,40.5435854827,-70.3296880146
5778,54.1802468109,19.5193090934
5976,34.0261161183,115.192765403
6068,38.7853186496,-93.6050847291
6098,37.8552662486,-70.791576704
6168,38.2255189314,-64.6617927447
6260,33.9074246659,-99.8301302366
6295,40.2153532943,-63.5721616443
6348,31.6915537135,-89.8896326234
6384,42.9777197767,-73.288419291
6406,42.0692978647,-71.6814410804
6417,35.523824574,-106.153311162
6472,36.569535418,-80.7405806091
6483,35.8359926239,-83.4636787616
6641,37.1282677954,-90.4781230147
6692,41.7486292226,-106.167819174
6738,38.2233469747,-86.4204912843
6811,44.4722824864,-106.998739546
6860,40.2243453161,-75.3750650302
6865,39.3780809301,-96.4075635376
6898,53.7828834167,13.0415365892
6903,40.1300787652,-79.3929261432
6971,37.5676867882,-71.1888785754
6995,40.8590304814,-98.4658319618
6999,35.9876307103,-109.788701358
7302,34.5574823036,-88.1224725096
7304,32.8948158945,-93.1924604371
7317,-6.79254601009,-53.6151542895
7390,49.8185011716,-7.15282554644
7413,33.2863634151,114.390025894
7417,41.1356549209,-81.4359868853
7460,30.0595465218,-81.6855198302
7461,35.2485087143,-92.5965506888
7466,9.06026181378,-9.21319176547
7526,36.7709980615,-76.6603761475
7554,48.1841895445,-6.416320035
7788,42.2887231094,-87.8216053747
7883,9.94669550463,-8.61012123063
8071,40.3643219093,-76.0062824415
8079,33.7845292731,-99.0837139322
8124,45.015542258,11.0116413217
8188,48.1731240729,-6.49625720078
8194,44.3268286135,-106.507487495
8252,45.0267203682,-108.340213759
8295,43.4509727474,-75.8122262655
8296,4.95291527001,84.307191847
8415,54.233782758,11.5699972244
8533,34.2923585379,-104.535058567
8641,33.623406649,111.407874302
8650,47.651552938,-5.09518706608
8652,49.5640210372,-1.03946398993
8733,37.5910773806,-110.859517707
8787,9.31453811206,-7.05265751707
8790,31.6302842568,-76.2699940644
8916,34.1711630781,114.983222223
8941,37.0828949901,-108.639995131
8966,31.1234202994,-78.2949858639
9024,34.5597662208,-105.731476875
9050,-17.9003284795,109.118265632
9071,38.6467161115,94.6976234031
9197,38.244624831,-64.9504045364
9279,41.3981223768,116.637664725
9283,33.4734925439,116.557583265
9445,39.9106150925,-68.617560035
9801,39.1105329544,-104.001978666
9865,49.0191577092,-0.675438832476
9868,35.6925942974,-106.012347038
9908,53.6798378271,12.4297752772
9912,48.7112572202,-0.837226280956
9945,55.7338754593,0.994822681793
9981,40.5574194733,-72.8450326008
10042,37.9729909319,-111.814106574
10044,31.7469155162,-85.253335142
10114,41.8680386747,-91.981058044
10165,38.8103784453,-106.059539359
10226,41.3534279662,-77.1961438235
10264,30.6542205291,-85.7686934515
10312,42.3815882305,-67.34464006
10383,-8.27937292842,-48.2342383627
10436,40.8720295877,-69.3778469977
10693,34.458999399,-106.913987066
10770,53.8323633336,12.7958962339
10832,49.5694183907,-7.35911057147
10842,38.6911555391,-73.3634093912
10876,35.8022225803,-74.2736506656
10905,36.1565236812,-106.093136512
11058,43.6820812724,-74.8997310006
11084,34.085876311,114.915047471
11100,47.0841695246,-110.641625043
11110,35.9039009252,-105.559233251
11114,36.7321821462,-87.925812542
11259,40.1162705995,-9.67881473526
11276,11.2787346158,-11.6369210892
11278,35.0960836121,-108.336068831
11316,47.7374241091,-4.97656299788
11342,40.7294699566,-80.6221029322
11532,36.328456959,91.6321247714
11570,38.0432363382,-69.7035568588
11584,10.6166580535,-10.3546414886
11628,36.8594119114,-76.0454522976
11657,48.3763566846,-0.0829932546457
11698,39.7491460179,-68.455494816
11706,32.7851549947,-86.8740841305
11784,36.493474165,-75.907363687
11806,40.7081196448,-103.970704831
11808,36.540235308,-110.539542341
11816,35.8345124151,-71.91365806
11830,33.447156432,-81.5140936546
11865,39.5417062887,-75.0755454056
11931,30.0564089157,-75.513880243
12045,-13.9000110765,87.096999525
12126,34.4724093327,114.218946534
12237,37.7334832822,-111.313356976
12312,33.745966268,-103.947117734
12413,38.8738311723,-74.1487195487
12467,41.0563957836,-98.5126152137
12492,44.6071204405,-0.8024706823
12676,37.8976530069,-111.528390888
12694,39.1148087945,-65.8919403924
12966,41.8604748252,-68.742511615
12993,40.3686583867,-97.8707402236
13036,46.1158270075,-110.8397194
13154,41.0397230982,-90.4205576198
13161,36.5441053924,-100.942372285
13166,39.9677445847,-96.7450140427
13223,40.4863005381,-4.09658820218
13243,43.7164786127,-85.2139335058
13252,41.392251898,-64.7907391148
13271,38.1005551644,-65.0640560635
13293,29.9936440481,-83.3781711434
13369,39.4281280636,-95.2837671074
13397,30.8545388027,-85.540680742
13432,36.6890944505,108.790794067
13469,33.5382255564,115.787993537
13474,31.4149732236,-83.1914187699
13494,42.1139220899,18.1605702225
13556,53.5867122304,19.5003319663
13643,36.4761712793,-108.343980084
13711,34.5194094979,114.630668592
13805,31.0447724889,-88.3542890648
13853,44.8451023053,-0.129740619622
13907,39.9617575789,-73.860901463
13933,34.6645027267,-101.302680056
13974,36.5886846254,-79.0207943184
13977,47.7937649575,-0.546726535533
13984,35.1480460493,-78.3161643596
14017,40.407393846,-80.3061006179
14050,-17.1052079145,107.0100613
14097,11.5169525008,-12.2178329632
14099,31.9131353031,-79.3716084872
14174,52.5735123502,15.4350686107
14220,43.3831549365,2.15979466979
14266,31.9611990796,-86.2725511609
14278,33.483425066,117.618769262
14346,41.4699229157,-81.5229114481
14391,47.3033970907,3.06891225652
14394,31.3433147867,-77.9636871143
14421,21.9849604028,62.367514608
14432,-11.5690228126,119.064040305
14443,39.297923615,-78.0567458512
14564,42.9248615362,-73.1266717609
14618,36.4312329756,-81.686164159
14624,38.0701652756,-96.4177754405
14691,45.7244890724,3.69376658394
14703,37.6324296767,98.6771557249
14756,9.97279677026,-8.45743501143
14781,34.984307224,-106.5966683
14803,39.2327285414,-72.4656640771
14821,19.5470542219,94.9867685938
14840,35.1835910715,17.6102290489
14953,11.4169279965,-12.1180313093
15086,36.3797614858,-78.9159317473
15100,33.9447425668,115.440529123
15109,38.5095872673,-83.7983301432
15193,40.8253344651,-65.49914052
15340,30.6184552754,14.7449513001
15476,35.3938706581,-83.4714451259
15649,30.3669024362,57.6148022122
15657,34.1205600296,114.815755151
15824,41.0455157253,-65.8332933104
15880,38.7423750295,-98.0570831082
15892,51.6751107542,-8.61860327924
15921,41.3076149531,-12.7664221833
15930,10.8760059595,-11.3787221184
15950,54.4138865958,12.1197533783
15967,54.9919197796,10.199354577
16016,40.1728363856,-69.1739880685
16030,47.7016120964,-108.832340403
16065,42.9047329929,-105.399876959
16204,40.3674002758,-67.7515215757
16324,46.0651818601,-110.592400876
16340,43.5278251674,-104.850052412
16368,31.9120864714,-79.3773629455
16391,54.2956481937,11.4632871007
16476,9.36454483039,-7.20067205196
16568,40.6895842277,-4.24780711195
16703,39.1403421902,-79.0348003654
16712,33.4797620036,116.334083642
16734,33.4298921505,-98.6409106594
16886,39.7617259402,-73.2801820086
16939,49.9882855657,-6.32425512572
16942,9.10127392993,-6.68920444657
16962,50.1206533966,-2.72398050715
17053,31.3496200433,-78.6474346551
17062,39.7410025586,117.30692931
17095,35.644881903,-107.698367312
17115,44.3795501945,-106.537104071
17149,53.6354113697,13.5021096396
17248,-15.8862573837,-69.8995006071
17253,42.8557643393,-72.7129601517
17378,38.1075304717,-75.7456045749
17396,53.450624629,13.9191476025
17445,43.2175233055,-74.0912955933
17591,34.8076035602,113.203482492
17596,36.9605719438,-115.422110459
17701,30.4438820042,-84.6687875104
17931,49.8525529179,2.8492079555
18007,48.0911207566,0.0956927780234
18036,36.0697217082,-109.124342919
18048,34.0232695622,-104.349339899
18220,39.5413811241,-70.7106610307
18262,34.7196381496,113.459960519
18312,30.4888911125,-72.8750385156
18454,33.5323470766,114.986967416
18465,40.3472134122,-80.9330027169
18501,41.4204361198,-6.13837044559
18666,36.1819151747,111.397756595
18777,9.78253528409,-13.8615242232
18780,41.928871698,-65.404572205
18794,40.8741257127,-99.0272165652
18812,39.2947616013,-78.6437140525
18868,30.9129702581,-75.9185675403
18925,35.6962301244,-79.9593981579
18948,37.7614950264,-111.085157955
18956,38.6825576508,-76.3646628298
18959,37.0109334124,-80.3395375414
18960,37.4098847453,-90.7664177801
18973,37.4419793752,-10.3091802016
18995,34.1504296044,114.95927492
19094,-7.4437812853,-53.1815739266
19119,35.046400933,-108.054487716
19130,31.2237954563,-84.0908709584
19138,40.0347555297,-72.5866738826
19311,37.9122633568,-66.0203447026
19333,34.1653292914,-103.333204342
19373,38.2608239438,-73.0770146741
19502,-8.5899668008,10.7739807296
19511,34.7557872819,-106.856126128
19696,41.3655836422,-104.321643004
19738,54.0894203098,23.6513354337
19740,12.1372735507,-13.7168972832
19802,38.9868317367,91.8641613157
19835,28.7378425576,94.5283326023
19915,46.4675744961,-5.12673757093
19954,34.1140712687,110.922476227
20039,40.7009268367,-74.0184642486
20056,35.6421869108,-71.2494958776
20139,54.2098039997,19.434158935
20318,28.5292572452,96.4561642284
20385,43.6065880675,-85.490496599
20410,10.1340707405,-8.59260569879
20448,48.63332095,-7.17106024843
20494,53.2925258158,13.7951259896
20511,46.4452059786,4.08589211353
20599,45.439934075,-1.27038298906
20606,39.2519755404,-96.1700636517
20619,36.4987812366,-108.492974676
20734,29.5653112712,94.0055011356
20765,47.5674685047,-7.6960745256
20949,47.8760328551,-5.36889590867
20958,40.7174990886,-85.9298195199
20962,38.3808529125,-112.385593411
21057,44.3210892815,-106.346627836
21169,49.1123898501,-0.347487907679
21267,43.9337050571,-86.3708601157
21339,43.826273533,-86.1888402279
21388,45.4582935358,0.346338322555
21394,44.7574287006,-2.17996507576
21445,48.2949661642,-2.22651452651
21582,-16.5075460858,116.924802255
21608,33.8611936052,115.408386962
21621,54.2845502571,10.7491411601
21766,42.4686468354,-71.5100228004
21872,34.5559356874,-74.6120051369
21911,34.1903077355,-89.9219669548
22071,38.3658433953,-72.3346627186
22093,39.3158373517,-114.973884342
22101,34.1692635032,114.74719317
22163,39.2834255034,-94.8027231469
22208,38.3152589662,-70.5355024898
22224,40.8707996165,-79.3869941226
22231,29.6231829402,-81.7833109398
22393,47.6802597323,-4.81535146253
22435,39.0301825434,-66.9982551441
22556,39.4118425163,-80.4421951053
22602,43.408501866,-85.1372391468
22682,41.2257104362,-74.7035197242
22800,33.5821265181,115.264924816
22960,11.7771007736,-12.9174642962
22963,35.7631366199,111.145216974
23078,37.7880816926,-65.6656792305
23106,53.8026377477,13.0818749314
23321,-1.09769053716,17.5646751194
23368,49.5595780861,29.4179352403
23435,31.7132300727,-87.7328593568
23638,41.1805319586,-106.381811043
23639,48.5167507923,-7.02337899633
23683,44.9264732812,1.9038204485
23696,33.0970575015,93.5225696584
23748,34.8232107242,-106.933779077
23822,34.1802995853,114.79204197
23835,31.0803953995,-71.9719355019
23840,49.4353474716,-2.00471042472
23857,26.5281792977,-141.293721252
24033,34.0464576852,114.548450252
24047,-9.13022596651,11.9731302099
24059,51.184833207,6.79773620714
24175,39.5640314901,-67.792748345
24178,53.8166529639,-9.32179033277
24226,-17.5477282168,108.58706608
24345,33.4441528308,-89.7558502606
24452,35.1715920241,-79.1852795767
24487,11.597014385,-12.5177478028
24519,20.2602612619,74.8368060747
24629,41.5855723826,-76.7453507727
24750,34.5892840821,112.649520667
24781,53.9956572669,5.09525460447
24837,46.443182076,-3.16889745259
24897,38.6163349125,-95.2917122812
24931,33.6267436568,-100.211781518
24939,41.6365619448,-66.5226454184
24965,-16.0336679752,115.708274936
24981,43.6760092263,-102.445523907
25005,34.3744572012,114.553155852
25040,42.9288335104,2.72163965758
25136,34.9140148109,-70.5098731953
25160,34.6833054174,-104.038891287
25194,54.2373916765,8.49341638219
25231,40.5382298362,-89.1842787328
25262,39.3873427846,-62.5785259899
25356,43.619153009,-86.1695397588
25358,34.9873559726,-106.684992342
25529,34.6132262528,-68.6668787165
25573,46.8462219556,-5.30281062766
25663,40.3737512198,-96.9553592076
25748,-11.7133365574,119.325499251
25814,41.3946484061,-69.5886588721
25859,37.7130217088,-93.5921770246
25926,40.5159738584,-81.3653930153
25948,10.0043408475,-14.389517176
26017,43.1804156172,-73.7998975705
26152,40.3486397924,-77.7396963475
26161,33.2042766872,-98.2396552351
26184,47.5895422357,-3.39898869524
26271,40.6616968699,-70.6832933137
26307,10.4463837498,-9.6571788543
26317,38.5423811738,-65.6924129603
26708,38.6605396471,-113.28198117
26741,39.9149762716,-76.0778454759
26748,33.226265521,17.1129317763
26811,54.8598084843,3.14473912858
26820,38.6680057198,-113.295897387
26834,32.7556143408,-94.6260649812
26900,29.7320116744,-76.8599623029
26948,34.866512065,-77.5397870542
26968,28.9375111439,-92.3016467282
27095,30.6423526062,-85.1038634258
27139,32.0400243188,-102.431398485
27215,39.7868373557,-76.8452824424
27255,39.3840572013,15.4983424596
27274,35.9881518996,-80.8010923797
27283,39.7824678784,-68.5232370339
27359,48.5648604502,-2.18284280108
27368,42.7972176473,-81.6497252042
27438,41.7876424552,-64.9957187786
27449,52.063558231,7.09103878248
27460,42.1831938074,-66.8583752901
27580,53.9385309476,11.5254595241
27706,38.9453567356,-69.3727699692
27790,33.9505669699,111.427572901
27938,39.1248825444,-74.2260565305
28079,38.0208129392,-76.5167316847
28110,39.683516856,-71.6317959317
28121,41.0340242323,-71.578217023
28124,33.4409222731,-98.7133216553
28287,48.4709789413,8.70583421861
28315,38.6594636175,-76.0309080605
28363,-12.930332841,-75.7341494812
28405,37.9786302691,-71.1664433993
28500,34.548241244,-100.910243472
28615,42.6462564795,-80.0155693876
28672,38.2998282149,-92.5491932347
28685,25.3285003058,-139.53221775
28705,38.481800553,-65.8353399507
28885,32.5916498547,-90.8026518203
28887,40.0401926946,-98.2373354874
28902,-17.3262038496,107.910653277
29141,41.530288467,-87.9832656751
29219,42.7386006475,-81.7389723894
29261,31.7599600129,-90.3380226599
29278,37.2764908611,-79.4063483722
29364,32.0049331288,105.610551354
29427,38.2387277053,-112.074935664
29517,45.3491175141,5.83537785453
29525,35.5587084277,-80.8430897373
29542,40.0185014303,-68.724626509
29623,48.4555619983,-6.73236651718
29659,39.425281995,-95.557883415
29692,41.6918795161,-69.3755386431
29745,39.6090966764,-67.9599746531
29779,38.9801799267,-72.7004741723
29862,38.9456836798,-67.5015116458
29870,40.9416513658,-81.8026399816
29993,47.5021713249,-3.04463186887
30063,10.336409665,-9.71973234863
30124,42.7900808046,-81.5644973338
30137,34.3774003192,-84.0997921403
30157,55.2953838017,-130.416392693
30173,40.1381506379,-79.7255693375
30198,41.5004976387,-74.5602119711
30264,34.3800268842,-104.900620806
30268,33.4411577929,-75.4312797683
30336,47.1692714072,-4.28452607142
30368,34.7420700098,113.45265317
30456,11.6867079688,-12.7195242023
30459,35.2865263867,-106.694456295
30482,32.1906762815,-85.4041640404
30537,39.6875792051,-81.1166153395
30541,35.3319543204,111.516519705
30552,31.9939382402,-88.2495032698
30618,34.8190709085,-72.1161388986
30853,39.2126622815,119.440327265
30878,28.8651292872,-74.8372280333
30947,33.7730858281,115.924680552
30977,39.0251950185,-94.3130275428
31023,52.573997231,8.60137954933
31071,36.9059842102,-70.9809369765
31079,41.3895625381,-64.5941954269
31110,34.4735639186,114.046730177
31146,27.8937909965,92.6205516446
31150,33.9433876778,-103.916930373
31283,-10.8732754744,117.042060114
31291,35.6462557303,-107.537071084
31399,37.2205692768,101.912254665
31497,-15.0244095871,7.32414417021
31582,29.8695035138,-74.9273781994
31653,48.4284283807,-6.81149857515
31677,10.0455917344,-8.64294140398
31692,35.6739867944,-106.675285864
31739,39.0568154737,-75.4631349378
31823,31.5668697159,-85.0120765645
31957,38.4035298996,-70.8068725604
31989,38.4591255759,-71.7878636099
32064,37.7877565496,-86.4539337689
32090,47.05690027,-110.569814202
32102,48.2667726204,6.20480768469
32217,37.7685967521,-72.7678458009
32241,9.37092819565,-7.28454006106
32326,40.5167918399,-96.6934358772
32599,54.0248107867,12.1479873723
32609,38.625105832,-71.8215565663
32646,40.626198848,-78.746747574
32711,38.027333148,-92.9561035365
32714,37.3910855125,-83.9053309636
32806,35.6519664131,-89.8988000899
32825,10.294066923,-11.0339954674
32892,49.9082363065,-9.34179448634
32923,35.5210642778,-108.818749367
32930,36.5968594622,-110.25949402
33056,35.910744154,-105.441965354
33065,49.9582350431,-4.15205657655
33119,35.3491729792,-72.0059276012
33294,30.4475784943,-75.3326599708
33312,49.3023812289,-0.50400464176
33383,41.5979596705,-66.5733330321
33471,44.1200114829,-108.577495698
33481,38.7938518161,-66.7661193902
33574,36.9498229927,-79.0398193914
33597,31.49250066,-81.0685968463
33635,36.7702448707,-76.6426237949
33679,54.2587929482,22.2547564286
33693,34.6502612555,113.842745765
33708,48.7004591019,-4.91454554396
33832,33.4918613848,-90.3951324475
33890,44.8533740028,-2.5681181427
33968,43.5322170194,-74.5557043309
33980,34.6534871477,111.499243897
34058,35.5352789837,-75.8679822058
34090,37.72581415,-63.2841212672
34163,12.1372735507,-13.7168972832
34186,39.155803005,-67.2580452666
34206,50.0019631192,29.4102748355
34216,-13.6059844131,113.530482881
34335,39.2474226188,-7.3029076786
34470,37.0189310762,-74.4118586926
34620,34.6191325858,95.5269776416
34625,42.5520598694,-72.2696688762
34661,54.0679547068,12.4299164865
34795,40.049352218,-111.508390926
35049,40.1776542791,-69.3848387516
35130,35.9139640627,-108.455659968
35170,48.4301830915,-3.81014985414
35230,39.0378416398,-72.4715528043
35308,36.3594355156,-109.587739469
35319,43.6575715264,-90.2245821693
35374,40.5597116147,-98.2822146156
35384,55.3557281073,16.7639504289
35397,38.476481802,-92.4326619347
35416,42.6901472743,-87.9234819511
35423,42.4055458389,10.0507782734
35533,37.9832949647,94.5230066367
35556,44.5881770538,-113.305071268
35585,36.9965722735,-109.483819017
35651,45.1346333645,-108.451702199
35694,32.2162336584,97.4692256719
35959,34.3306077676,-68.440297452
35987,40.1505235365,-74.5875014385
35991,46.1600573275,-110.9843098
35998,39.00001606,-85.8494017356
36160,31.2987231594,-84.5332552731
36197,36.3829059543,-85.7850512049
36276,38.835626187,-75.3433101008
36331,38.7787991556,-79.744878108
36351,32.7832129343,-78.4852869184
36355,35.0050305554,-106.503931199
36359,34.3809317527,109.902405696
36390,35.4818620386,103.581544441
36448,43.1204154622,4.66014477312
36468,35.7619915514,-109.065500943
36470,48.150649835,-2.86519278865
36510,39.6826043516,-1.813239378
36517,42.8983298752,-85.6093457454
36525,34.6158942975,-100.088849649
36551,40.8647516933,-81.4942793414
36707,53.8960350786,12.5023945078
36722,35.98322363,-108.792418485
36757,40.4646872656,-62.721749194
36830,39.5980006383,-66.1560260655
36859,34.9059223024,-106.437599627
36868,54.7945650558,3.45200272777
36893,38.9901818621,22.1802595075
36917,39.6133579427,-18.9991368131
36956,39.152241722,-68.0866208448
36990,34.8937521942,-105.988078054
37001,48.9311400166,3.08183599348
37052,48.3949626266,7.99101571592
37087,33.3996683543,112.207667334
37108,39.5029158757,-62.7192036631
37116,43.6596993114,4.0872408625
37141,45.6191208498,-111.863558397
37175,38.1844923977,-70.0533669288
37247,-20.1498541997,132.613306981
37269,41.2820004074,-76.8653467475
37305,-15.0076821122,113.059244427
37312,46.3457770578,-111.493894144
37401,-17.5982015393,106.529205395
37495,47.9856554417,-5.7096482653
37511,49.1608265187,4.8568651004
37641,33.7880878151,114.104960564
37645,46.7428664385,-3.67830689213
37663,35.539864896,-93.3288985368
37698,41.7193427456,-69.9896643663
37878,37.2614324663,-107.029675811
37991,32.0848409624,-86.9663468082
38017,36.19327136,-107.661605142
38070,46.4289178379,-3.83278845722
38163,33.3305380276,-99.2124758407
38168,41.5737134385,-6.31352109499
38425,46.80672441,1.35467444904
38578,38.0035623213,18.5454079174
38586,48.9137618019,-7.26471678627
38721,37.0118257859,-82.7666061823
38771,46.0850520339,-110.495608159
38779,34.9822107382,112.492047676
38806,36.4402829742,-107.561783859
38818,34.6300481455,-105.686484028
38828,33.8852012658,111.416698426
38967,34.5600373672,113.496311154
38987,38.2685238154,111.879880053
39009,47.9881982975,1.26381443505
39121,53.6875669721,6.05707687544
39160,39.3762717854,-65.5977179982
39214,12.8328967113,87.1947991817
39234,49.2836231276,-9.74693585859
39324,-17.9865840379,134.017947859
39363,31.8616269471,-87.3304928688
39649,37.9817153798,100.778008571
39690,50.0656729281,-6.25997473613
39694,11.2988008964,-11.9551651997
39766,34.7742597882,-77.9289936203
39879,42.5063124824,-80.1382219818
39935,40.6185503241,-71.3038703356
39936,39.1482724062,-99.9164028212
40007,35.8700456693,-106.357756723
40012,38.4955831945,-84.2240137057
40059,34.3045442194,-105.231333514
40155,23.4648977911,-65.7421694979
40310,34.9530379191,-107.221937627
40327,37.9839202661,-71.9891308378
40348,44.8309338701,-109.111064191
40353,-16.4969242967,105.091158746
40417,30.5982593821,58.0811791257
40527,48.0849726012,-13.9966338718
40534,38.8485895934,-65.5044226687
40621,38.8525564342,-70.9309151988
40636,41.6835671839,-67.567495133
40679,35.8604051447,-101.439118715
40685,22.5768752477,-62.3950883823
40711,54.4607250686,4.11815581672
40799,35.1473669006,-108.12794558
40807,38.0080841394,-91.1871494108
40868,38.8567303617,-73.9776945385
40885,32.2987671222,19.0483315118
40889,36.9919799113,-90.7506873498
40994,49.3234194606,-6.40404097204
41002,49.9986624696,-8.46925088642
41084,53.8751231247,6.11733283588
41191,49.7261781258,-7.12849447766
41418,46.1772514724,-107.533049369
41484,31.1975157116,-75.5372065912
41516,35.9445362606,-72.3758526127
41681,38.397730442,-113.656687367
41705,40.9895296984,-63.9081266727
41880,31.3775066694,54.0982548629
41990,49.0658566841,5.67432219467
41994,33.1880304704,-79.9833750352
42128,-19.0864601961,110.792724387
42165,39.9784810474,-16.4889236699
42174,35.6370697233,110.99947778
42203,41.6747547051,-70.2600807991
42281,38.6328608054,-73.3259367616
42288,34.7216219317,-105.829498953
42303,48.9885739679,4.2312349535
42389,41.0416133945,-90.4659494012
42521,40.2764116379,-74.3397666908
42617,36.2905412021,-92.5393243038
42730,35.0496458232,112.71376229
42805,34.581381461,112.377175949
42858,51.1905054657,26.4822717054
42904,54.2436148357,11.7209843071
42941,54.4230117575,18.5827911455
42962,10.336409665,-9.71973234863
42977,-14.0623456669,87.7138678661
43055,36.1702255137,-107.281710217
43059,40.8638755589,-80.5569055443
43066,42.9924115411,-109.213298878
43108,37.5761552984,-110.3713854
43419,39.4725347537,-73.4409133419
43492,-16.4575968789,103.617546279
43493,36.3815523755,-108.174419771
43544,38.0054409003,-90.8262805045
43576,39.7278971061,-66.5739202151
43677,36.9673306613,102.442939088
44011,39.3488687616,-95.0380776804
44067,35.6266382551,-107.761853879
44171,38.2313025061,-84.5504614433
44222,40.4790054467,-75.4021891659
44419,39.7274198426,-95.6144910952
44508,10.0659304716,-9.12207576122
44512,38.0817691491,-111.749143681
44526,36.4288256892,-108.35490719
44603,38.2333313377,-86.0491711457
44630,36.4029802679,-76.1498815512
44643,49.9359535115,4.41874197825
44689,41.9928571605,-71.346552582
44706,36.6275326823,-74.3042954827
44833,44.031559734,-65.8371752065
44838,55.3302942945,16.864988932
44881,11.731697208,70.7423113451
44889,34.3605736179,114.192151082
44894,-14.7203467719,-71.5465675904
44976,48.6099723627,5.97616113846
44992,30.6746105848,-78.8553769404
45026,47.680342478,3.2503843066
45046,48.4802925104,-6.94690024492
45054,31.2476347441,-78.2716112615
45073,40.2874626636,-101.830144661
45094,12.1402221881,75.3402210549
45103,48.6887661534,-7.71928659576
45113,40.6560917829,-70.4657789813
45135,31.1696582754,-78.2001469891
45181,3.28675299265,83.5710459865
45278,41.3655761344,-104.319805065
45341,46.5413274927,-111.859808223
45348,48.4091828869,-0.270620595138
45380,36.9819900373,-69.480782665
45451,34.729810245,113.824469323
45552,35.3105391611,112.633901373
45619,39.42385521,-77.2848274747
45634,47.3811727074,-2.86753465193
45639,39.5048177139,-68.184055734
45651,39.3935822585,-72.0187568747
45719,37.9439346757,-111.355317682
45779,49.6226163681,-9.49888405653
45843,44.8033583613,-107.23464755
45848,38.5460384909,92.1523519371
45881,38.536953607,-113.094504013
45911,38.3101150598,-70.1220184252
45924,42.1763310623,-71.886345765
46030,35.129470637,113.59725646
46113,11.0413019937,75.4122643856
46115,30.9480523472,-82.4302968663
46352,39.2540368779,-68.8677530871
46528,35.0958944189,-107.462163681
46598,38.0469885006,-64.6037650006
46607,36.285102467,-81.3787351602
46674,35.2958586078,-88.3503699273
46715,34.2961627435,-76.2022553067
46789,33.726766455,-105.236790045
46850,49.4266430884,-6.62161070684
46871,35.5007005294,-70.2351152083
46880,35.9367598684,-105.96206825
47060,53.528936804,6.53786871938
47097,41.4826008799,-75.3828260662
47135,41.3121080513,-72.6809562065
47184,49.8397719477,-8.25335286485
47247,36.771213404,-88.5288322374
47258,45.6547112326,-71.4973037652
47272,33.4076053876,-89.3682657492
47358,34.8669557373,-81.2570904637
47412,36.2970094574,-109.422676349
47592,37.3148598621,-110.351769693
47609,40.0834084876,-70.2376163933
47681,40.3946784589,-70.2274258231
47726,39.8638654244,-78.6132744135
47960,35.8189893385,-104.088144392
48034,48.5096356967,-6.93328971007
48146,39.8837133323,-71.7078230167
48150,38.3507222744,-111.152908702
48223,48.5629530602,-5.74019794111
48254,34.9570392518,112.534490108
48260,35.2249336643,-102.495289474
48295,48.4634110362,-0.289539895867
48321,44.0332567487,-106.184675078
48355,37.150405751,-108.9973949
48457,41.8205524817,-65.0762171145
48833,40.7189939419,-77.6060911999
48877,44.8625504175,0.661976655809
48911,34.1603225223,115.046126277
48914,43.769866314,2.41552124588
48923,45.3824325369,-0.58201694296
48941,33.7243040658,115.477182594
48958,49.1158806029,-5.04935056246
48962,32.0299184475,-75.0636902463
49070,37.9694901781,-75.9542115656
49088,29.6751684252,-76.6378704066
49168,30.6323015444,-74.2372810237
49171,39.0812724069,-67.5639938242
49331,49.7903738944,-3.12907769622
49346,-14.4183314746,88.2228270761
49362,37.8899357264,-77.1038179776
49377,33.9677903928,-89.3482910928
49385,25.0217884045,-92.7616638173
49447,45.356185623,-113.086553715
49499,40.1795848915,-98.2929084467
49590,43.787297043,2.78341016392
49675,36.8737624731,-110.903884574
49797,35.1286686261,-108.030350349
49834,45.6737541261,3.85389491496
49851,34.9189955804,-105.334932709
49869,50.4048857812,-8.6005733693
49925,33.5645974386,115.531445133
49941,-20.3373653064,132.648080157
49944,40.7898344151,-8.66951309995
50056,48.8521514821,-6.33874075663
50072,40.1490077007,-61.938913143
50137,35.5519250908,-105.872499979
50157,40.2204231071,-79.5300801728
50188,-10.1955987315,115.506270513
50200,38.4708477657,-92.9151804393
50329,44.9108569074,-2.15943637112
50349,54.9689111173,1.92972063147
50389,37.9990841318,-75.4802819863
50429,39.3680616259,-72.108687271
50441,39.0329326274,-95.5109022986
50496,35.4710475303,-107.402066312
50532,37.6705548782,-110.125795677
50635,42.4900509596,-72.4319051609
50785,38.9772005728,-95.026016017
50817,55.5811512537,16.1483853375
50841,32.0524341475,-74.3204947246
50874,-17.3176290789,106.952135269
50920,40.3037004667,-76.8280358464
50947,10.966712025,-11.1187400757
50983,42.9157883103,-73.086410182
51096,44.129627698,-106.514256656
51101,42.1073132771,-73.2464396281
51149,35.1683218136,111.984071266
51152,40.966462278,-85.8458886283
51184,47.6382548315,-5.34597467165
51322,46.042481407,-2.17400876921
51475,-16.864915382,118.094282375
51520,33.4945078503,-75.6841033709
51780,-16.3596025411,116.759083715
51803,30.313856584,-76.1830251945
51807,36.2428957043,-84.3233616328
51819,32.1316410552,-89.7704503101
51843,46.7085886116,-6.07293586822
51862,41.9883800576,-76.994944137
51970,35.858403872,-71.0271092804
52080,44.5910614874,-71.8236097603
52204,45.575445394,-111.870105106
52215,42.3351641512,-102.58038799
52237,34.014272344,-76.8773844408
52257,41.0041212389,18.6473503182
52260,39.3744486405,-78.2135895834
52273,36.1295402847,-109.673846951
52277,33.8711773915,-89.94427277
52338,-14.4271039865,-72.3760914227
52551,32.1971726439,-75.5619343721
52564,39.4595633674,-67.8626839393
52568,30.6551461896,-76.8102509575
52657,46.9525459903,-107.530412636
52796,38.9022145533,-73.5429124922
52797,36.2323994642,-91.2755293303
52809,39.67617136,-94.8111841173
52893,34.4052680212,109.579181565
52966,44.7634151249,-2.17894510701
53081,39.4745520478,-88.8504527697
53167,49.5113809918,-9.21932539845
53172,38.288903351,-69.3018019351
53177,39.9030917681,-70.3064858267
53193,38.2175707104,-111.642798154
53385,36.2506969184,-72.9011396279
53423,54.4237459837,11.3192237245
53437,33.5466194037,-90.8598072261
53474,33.9441033935,-105.807432127
53595,45.2946422984,-0.325094925237
53635,39.2069669724,-1.23758484192
53716,34.9685389096,112.950022962
53739,41.4255082703,-67.1052589863
53810,35.2913701383,-67.3298188566
53832,50.2685206278,-9.13687682421
53834,37.4521968949,-90.6278006685
53881,-14.5164478798,88.552311995
53921,49.6951045876,3.09122133231
53928,40.1556478125,-77.2204110225
54060,31.6843753378,-88.6730359927
54084,35.1565908229,113.825167732
54085,39.5759005171,-68.7168886013
54126,31.4508069556,-74.2530641884
54136,-9.50663316102,-53.4882219666
54233,36.930942422,-77.1286291247
54256,39.6442446175,-75.7543008345
54338,39.8919981653,-89.6133188909
54342,45.6440743632,-1.1713035822
54438,40.3997687971,-77.3806055996
54483,37.8890164511,-64.4289864176
54508,10.3869711232,-9.59199742433
54514,42.9406715047,4.04601626986
54547,39.0440539705,49.703659599
54575,44.6600364352,-107.274851407
54664,48.3791882995,-6.63345476603
54719,29.5712851308,-85.2717368893
54787,48.8054682183,-7.69096529179
54826,10.2460168602,-9.52179225467
54835,40.5814323056,-71.3658372923
54928,45.0244270138,0.503414617614
54984,35.2477168384,112.230118607
55004,37.7560880145,-86.2514449555
55039,44.941350429,6.9822795162
55256,36.2460059522,-75.3132213867
55423,33.8700688945,115.794779931
55493,39.175271237,-104.438423235
55822,40.527738418,-70.3792248674
56023,34.1329621428,-107.937920151
56109,30.727553032,-86.9807991074
56187,34.400162577,-105.088230149
56195,45.968390738,-110.288395342
56199,45.4751306844,-113.355128433
56340,38.8560190055,-94.2177891299
56474,45.1744585431,-86.4284982455
56520,32.5900819198,-86.8435486998
56644,47.6378423931,-4.90531535155
56662,40.3434576751,-76.2064056761
56695,37.0722314231,-109.403203868
56701,40.0659899808,-84.4377485445
56717,42.0934070452,-102.280706422
56754,39.6792286699,-75.5711811544
56760,36.0564291806,36.4537822715
56764,48.8893096676,6.83294435437
56778,36.2664139415,-107.592728806
56780,11.7771007736,-12.9174642962
56907,42.3025722155,-82.4397176142
56913,31.1344512712,85.087475814
56933,48.7895998113,-7.72577092611
56997,9.34333919833,19.1109973364
57025,36.3935204235,-78.8316156117
57034,44.5108032943,1.42848169032
57035,39.7088229254,-97.7095830801
57079,38.1542752028,-80.7527554733
57082,48.9512797713,-5.73678145202
57154,38.6864653357,-76.4950514626
57163,48.6441807165,5.36260064355
57184,43.0127619018,1.53031550156
57191,33.6470731178,-104.28575076
57258,32.818553119,-88.3009804278
57425,38.9515626017,-66.9875116228
57433,34.2372849699,114.308304565
57479,39.045876014,-77.3311451051
